,0,Unnamed: 1,Competitor,Workout  01,Workout  02,Workout  03,Workout  04,Workout  05,open_year
0,1,1 (41),Noah Ohlsen,2 (350),9 (430),21 (140),5 (314),4 (07:38),%(year)s
1,2,2 (85),Richard Froning Jr.,51 (320),2 (430),16 (140),1 (315),15 (08:02),%(year)s
2,3,3 (86),Travis Mayer,17 (326),21 (430),28 (138),2 (314),18 (08:05),%(year)s
3,4,4 (93),Scott Panchik,51 (320),7 (430),9 (141),10 (299),16 (08:03),%(year)s
4,5,5 (97),Kyle Frankenfeld,8 (338),19 (430),2 (146),16 (294),52 (08:23),%(year)s
5,6,6 (103),Josh Bridges,1 (365),6 (430),33 (137),62 (280),1 (07:15),%(year)s
6,7,7 (110),Mathew Fraser,35 (324),3 (430),8 (141),44 (284),20 (08:06),%(year)s
7,8,8 (117),Patrick Vellner,35 (324),12 (430),5 (142),19 (293),46 (08:20),%(year)s
8,9,9 (143),Björgvin Karl Guðmundsson,35 (324),4 (430),18 (140),48 (283),38 (08:16),%(year)s
9,10,10 (167),Rob Forte,13 (329),71 (427),70 (131),7 (307),6 (07:42),%(year)s
10,11,11 (186),Jacob Heppner,2 (350),70 (427),13 (140),91 (276),10 (07:53),%(year)s
11,12,12 (270),Rasmus Wisbech Andersen,21 (325),21 (430),69 (131),12 (296),147 (08:45),%(year)s
12,13,13 (302),Zak Carchedi,66 (318),81 (427),28 (138),113 (275),14 (08:01),%(year)s
13,14,14 (305),Alex Vigneault,48 (321),9 (430),19 (140),13 (295),216 (08:55),%(year)s
14,15,15 (322),Travis Williams,60 (319),40 (429),159 (128),32 (287),31 (08:13),%(year)s
15,16,16 (329),Chase Smith,103 (313),16 (430),38 (136),123 (274),49 (08:21),%(year)s
16,17,17 (332),Paul Tremblay,10 (331),92 (427),7 (141),211 (267),12 (07:57),%(year)s
17,18,18 (340),Andrey Ganin,21 (325),199 (424),2 (146),29 (289),89 (08:35),%(year)s
18,19,19 (346),Christian Lucero,96 (314),68 (427),58 (133),25 (292),99 (08:37),%(year)s
19,20,20 (378),Albert-Dominic Larouche,103 (313),54 (428),87 (130),55 (282),79 (08:32),%(year)s
20,21,21 (381),Anthony Vazquez,161 (310),69 (427),70 (131),46 (283),35 (08:15),%(year)s
21,22,22 (402),Jordan Cook,17 (326),98 (426),182 (128),42 (284),63 (08:28),%(year)s
22,23,23 (411),Simon Paquette,170 (308),148 (425),16 (140),14 (295),63 (08:28),%(year)s
23,24,24 (429),Brent Fikowski,13 (329),97 (426),65 (132),15 (295),239 (08:58),%(year)s
24,25,25 (434),Stefano Migliorini,221 (303),94 (426),34 (137),33 (287),52 (08:23),%(year)s
25,26,26 (440),Frederik Aegidius,11 (330),14 (430),148 (128),187 (269),80 (08:33),%(year)s
26,27,27 (476),Dre Strohm,245 (301),47 (428),47 (134),105 (275),32 (08:14),%(year)s
27,28,28 (484),Irving Hernandez,51 (320),125 (425),115 (129),170 (270),23 (08:08),%(year)s
28,29,29 (496),Jack Long,60 (319),8 (430),47 (134),149 (271),232 (08:57),%(year)s
29,30,30 (522),Daniel Tyminski,189 (305),46 (428),113 (129),33 (287),141 (08:44),%(year)s
30,31,31 (529),Roy Gamboa,42 (323),32 (430),59 (132),30 (289),366 (09:12),%(year)s
31,32,32 (532),Sam Dancer,285 (299),82 (427),37 (137),35 (287),93 (08:36),%(year)s
32,33,33 (534),Thomas Nay,45 (322),107 (426),32 (138),134 (273),216 (08:55),%(year)s
33,34,34 (539),Ryan Elrod,51 (320),269 (423),36 (137),109 (275),74 (08:31),%(year)s
34,35,35 (540),Josh Littauer,115 (312),122 (426),140 (129),125 (274),38 (08:16),%(year)s
35,36,36 (551),Jonathan Gibson,115 (312),73 (427),70 (131),54 (282),239 (08:58),%(year)s
36,37,37 (554),Zachary Moran,9 (336),306 (423),46 (135),155 (271),38 (08:16),%(year)s
37,38,38 (557),Paul Castillo,21 (325),207 (424),266 (127),11 (297),52 (08:23),%(year)s
38,39,38 (557),Samuel Kwant,82 (316),45 (428),308 (127),23 (292),99 (08:37),%(year)s
39,40,40 (558),Luke Fiso,51 (320),137 (425),137 (129),112 (275),121 (08:41),%(year)s
40,41,41 (559),Adam Davidson,115 (312),39 (429),121 (129),195 (268),89 (08:35),%(year)s
41,42,42 (561),Adrian Mundwiler,60 (319),153 (425),45 (135),254 (265),49 (08:21),%(year)s
42,43,43 (563),Hinrik Ingi Óskarsson,89 (315),196 (424),44 (135),141 (272),93 (08:36),%(year)s
43,44,44 (574),Austin Malleolo,261 (300),135 (425),154 (128),4 (314),20 (08:06),%(year)s
44,45,45 (576),Jonne Koski,4 (349),44 (428),76 (130),353 (262),99 (08:37),%(year)s
45,46,45 (576),Logan Collins,96 (314),28 (430),133 (129),127 (274),192 (08:52),%(year)s
46,47,47 (577),Tim Paulson,189 (305),84 (427),107 (129),24 (292),173 (08:50),%(year)s
47,48,48 (590),Khan Porter,60 (319),234 (424),60 (132),63 (280),173 (08:50),%(year)s
48,49,49 (606),Nicholas DelGrande,60 (319),117 (426),276 (127),18 (294),135 (08:43),%(year)s
49,50,50 (632),Alex Anderson,115 (312),20 (430),77 (130),316 (263),104 (08:38),%(year)s
50,51,51 (642),Mitchel Stevenson,231 (302),204 (424),87 (130),111 (275),9 (07:52),%(year)s
51,52,52 (682),Lukas Högberg,82 (316),74 (427),422 (124),20 (293),84 (08:34),%(year)s
52,53,52 (682),Casper Gammelmark,200 (304),150 (425),23 (139),201 (268),108 (08:39),%(year)s
53,54,54 (695),Nicolas Leblanc,340 (298),159 (425),87 (130),82 (277),27 (08:10),%(year)s
54,55,55 (697),Nuno Costa,82 (316),279 (423),38 (136),209 (267),89 (08:35),%(year)s
55,56,56 (706),Steven Fawcett,16 (327),191 (424),115 (129),184 (269),200 (08:53),%(year)s
56,57,57 (708),Sean Sweeney,115 (312),146 (425),294 (127),26 (291),127 (08:42),%(year)s
57,58,58 (720),Lukas Esslinger,170 (308),347 (423),26 (138),50 (283),127 (08:42),%(year)s
58,59,59 (741),James Newbury,189 (305),43 (428),357 (126),17 (294),135 (08:43),%(year)s
59,60,60 (749),Bartlomiej Lipka,76 (317),358 (423),244 (127),6 (307),65 (08:29),%(year)s
