,0,Unnamed: 1,Competitor,Workout  01,Workout  02,Workout  03,Workout  04,Workout  05,Unnamed: 8,open_year
0,1,-- (--),Tomi Aalto,--  No score,--  No score,--  No score,--  No score,--  No score,Validated by:,%(year)s
1,2,-- (--),Mikko Aaltonen,--  No score,--  No score,--  No score,--  No score,--  No score,Validated by:,%(year)s
2,3,-- (--),Christian Aaraj,--  No score,--  No score,--  No score,--  No score,--  No score,Validated by:,%(year)s
3,4,-- (--),gunstein aaring,--  No score,--  No score,--  No score,--  No score,--  No score,Validated by:,%(year)s
4,5,-- (--),Troels Kjær Aaskilde,--  No score,--  No score,--  No score,--  No score,--  No score,Validated by:,%(year)s
5,6,-- (--),Jacob Aasted,--  No score,--  No score,--  No score,--  No score,--  No score,Validated by:,%(year)s
6,7,-- (--),Jerry Abadom,--  No score,--  No score,--  No score,--  No score,--  No score,Validated by:,%(year)s
7,8,-- (--),ariel abal,--  No score,--  No score,--  No score,--  No score,--  No score,Validated by:,%(year)s
8,9,-- (--),Ignacio Abascal,--  No score,--  No score,--  No score,--  No score,--  No score,Validated by:,%(year)s
9,10,-- (--),Joji Abasolo,--  No score,--  No score,--  No score,--  No score,--  No score,Validated by:,%(year)s
10,11,-- (--),Thomas Abbadessa,--  No score,--  No score,--  No score,--  No score,--  No score,Validated by:,%(year)s
11,12,-- (--),Hussein Abbas,--  No score,--  No score,--  No score,--  No score,--  No score,Validated by:,%(year)s
12,13,-- (--),Adam Abbate,--  No score,--  No score,--  No score,--  No score,--  No score,Validated by:,%(year)s
13,14,-- (--),Senay Abbay,--  No score,--  No score,--  No score,--  No score,--  No score,Validated by:,%(year)s
14,15,-- (--),Dan Abbett,--  No score,--  No score,--  No score,--  No score,--  No score,Validated by:,%(year)s
15,16,-- (--),Bryce Abbey,--  No score,--  No score,--  No score,--  No score,--  No score,Validated by:,%(year)s
16,17,-- (--),Francesco Abbo,--  No score,--  No score,--  No score,--  No score,--  No score,Validated by:,%(year)s
17,18,-- (--),Andy Abbott,--  No score,--  No score,--  No score,--  No score,--  No score,Validated by:,%(year)s
18,19,-- (--),Brigham Abbott,--  No score,--  No score,--  No score,--  No score,--  No score,Validated by:,%(year)s
19,20,-- (--),Bryce Abbott,--  No score,--  No score,--  No score,--  No score,--  No score,Validated by:,%(year)s
20,21,-- (--),GLEN ABBOTT,--  No score,--  No score,--  No score,--  No score,--  No score,Validated by:,%(year)s
21,22,-- (--),Jerad Abbott,--  No score,--  No score,--  No score,--  No score,--  No score,Validated by:,%(year)s
22,23,-- (--),Kipp Abbott,--  No score,--  No score,--  No score,--  No score,--  No score,Validated by:,%(year)s
23,24,-- (--),Noah Abbott,--  No score,--  No score,--  No score,--  No score,--  No score,Validated by:,%(year)s
24,25,-- (--),Ryan Abbott,--  No score,--  No score,--  No score,--  No score,--  No score,Validated by:,%(year)s
25,26,-- (--),tyler abbott,--  No score,--  No score,--  No score,--  No score,--  No score,Validated by:,%(year)s
26,27,-- (--),Hassan Abdelhalim,--  No score,--  No score,--  No score,--  No score,--  No score,Validated by:,%(year)s
27,28,-- (--),Richard Abdelkerim,--  No score,--  No score,--  No score,--  No score,--  No score,Validated by:,%(year)s
28,29,-- (--),Derek Abdella,--  No score,--  No score,--  No score,--  No score,--  No score,Validated by:,%(year)s
29,30,-- (--),Derek Abdelnour,--  No score,--  No score,--  No score,--  No score,--  No score,Validated by:,%(year)s
30,31,-- (--),David Abdemoulaie,--  No score,--  No score,--  No score,--  No score,--  No score,Validated by:,%(year)s
31,32,-- (--),Pietro Abdo,--  No score,--  No score,--  No score,--  No score,--  No score,Validated by:,%(year)s
32,33,-- (--),Jason Abdon,--  No score,--  No score,--  No score,--  No score,--  No score,Validated by:,%(year)s
33,34,-- (--),Raheem Abdul,--  No score,--  No score,--  No score,--  No score,--  No score,Validated by:,%(year)s
34,35,-- (--),dan abe,--  No score,--  No score,--  No score,--  No score,--  No score,Validated by:,%(year)s
35,36,-- (--),Shinsuke Abe,--  No score,--  No score,--  No score,--  No score,--  No score,Validated by:,%(year)s
36,37,-- (--),Anthony Abeel,--  No score,--  No score,--  No score,--  No score,--  No score,Validated by:,%(year)s
37,38,-- (--),MIKE ABEEL,--  No score,--  No score,--  No score,--  No score,--  No score,Validated by:,%(year)s
38,39,-- (--),Samuel Abeger,--  No score,--  No score,--  No score,--  No score,--  No score,Validated by:,%(year)s
39,40,-- (--),Moe Abeidat,--  No score,--  No score,--  No score,--  No score,--  No score,Validated by:,%(year)s
40,41,-- (--),Brad Abel,--  No score,--  No score,--  No score,--  No score,--  No score,Validated by:,%(year)s
41,42,-- (--),Brad Abel,--  No score,--  No score,--  No score,--  No score,--  No score,Validated by:,%(year)s
42,43,-- (--),Robert Abel,--  No score,--  No score,--  No score,--  No score,--  No score,Validated by:,%(year)s
43,44,-- (--),Andy Abele,--  No score,--  No score,--  No score,--  No score,--  No score,Validated by:,%(year)s
44,45,-- (--),James Abell,--  No score,--  No score,--  No score,--  No score,--  No score,Validated by:,%(year)s
45,46,-- (--),Tye Abell,--  No score,--  No score,--  No score,--  No score,--  No score,Validated by:,%(year)s
46,47,-- (--),Edward Abella,--  No score,--  No score,--  No score,--  No score,--  No score,Validated by:,%(year)s
47,48,-- (--),Santiago Abella,--  No score,--  No score,--  No score,--  No score,--  No score,Validated by:,%(year)s
48,49,-- (--),Ryan Abellana,--  No score,--  No score,--  No score,--  No score,--  No score,Validated by:,%(year)s
49,50,-- (--),Aaron Abellano,--  No score,--  No score,--  No score,--  No score,--  No score,Validated by:,%(year)s
50,51,-- (--),Brian Abellera,--  No score,--  No score,--  No score,--  No score,--  No score,Validated by:,%(year)s
51,52,-- (--),Stephen Abenoja,--  No score,--  No score,--  No score,--  No score,--  No score,Validated by:,%(year)s
52,53,-- (--),Mike Abgarian,--  No score,--  No score,--  No score,--  No score,--  No score,Validated by:,%(year)s
53,54,-- (--),adnad abidar,--  No score,--  No score,--  No score,--  No score,--  No score,Validated by:,%(year)s
54,55,-- (--),RICHARD ABISIA,--  No score,--  No score,--  No score,--  No score,--  No score,Validated by:,%(year)s
55,56,-- (--),Pj Ablang,--  No score,--  No score,--  No score,--  No score,--  No score,Validated by:,%(year)s
56,57,-- (--),Richard Ablett,--  No score,--  No score,--  No score,--  No score,--  No score,Validated by:,%(year)s
57,58,-- (--),Wil Abner,--  No score,--  No score,--  No score,--  No score,--  No score,Validated by:,%(year)s
58,59,-- (--),Jason Abney,--  No score,--  No score,--  No score,--  No score,--  No score,Validated by:,%(year)s
59,60,-- (--),Brandon Abo,--  No score,--  No score,--  No score,--  No score,--  No score,Validated by:,%(year)s
