,cf_rank_order,entrant.affiliateId,entrant.affiliateName,entrant.age,entrant.bibId,entrant.competitorId,entrant.competitorName,entrant.countryCode,entrant.countryOfOriginCode,entrant.divisionId,entrant.firstName,entrant.gender,entrant.height,entrant.lastName,entrant.profession,entrant.profilePicS3key,entrant.regionCode,entrant.regionId,entrant.regionName,entrant.regionalCode,entrant.status,entrant.teamCaptain,entrant.weight,overallRank,overallScore,scores,ui.drawBlueHR,ui.highlight
0,,,,47,454,9674,Robert Davis,US,US,03,Robert,X,"5'11""",Davis,0,e2d37-P9674_4-184.jpg,South West,0,South West,South West,ACT,0,185 lbs,1,804,"[{'ordinal': 1, 'breakdown': '64 pts', 'lane': 7, 'scoreIdentifier': '0000', 'exists': True, 'workoutresult': '--', 'mobileScoreDisplay': '3:50.35, 64 pts', 'rank': '5', 'heat': 2, 'points': '64', 'scoreDisplay': '3:50.35', 'location': '', 'time': '3:50.35', 'judge': '', 'workoutrank': '5'}, {'ordinal': 2, 'breakdown': '72 pts', 'lane': 8, 'scoreIdentifier': '0000', 'exists': True, 'workoutresult': '--', 'mobileScoreDisplay': '2:40.41, 72 pts', 'rank': '4', 'heat': 1, 'points': '72', 'scoreDisplay': '2:40.41', 'location': '', 'time': '2:40.41', 'judge': '', 'workoutrank': '4'}, {'ordinal': 3, 'breakdown': '100 pts', 'lane': 8, 'scoreIdentifier': '0000', 'exists': True, 'workoutresult': '--', 'mobileScoreDisplay': '5:11.85, 100 pts', 'rank': '1', 'heat': 1, 'points': '100', 'scoreDisplay': '5:11.85', 'location': '', 'time': '5:11.85', 'judge': '', 'workoutrank': '1'}, {'ordinal': 4, 'breakdown': '38 pts', 'lane': 10, 'scoreIdentifier': '0000', 'exists': True, 'workoutresult': '--', 'mobileScoreDisplay': '280 lb, 38 pts', 'rank': '9T', 'heat': 1, 'points': '38', 'scoreDisplay': '280 lb', 'location': '', 'time': '280', 'judge': '', 'workoutrank': '9T'}, {'ordinal': 5, 'breakdown': '72 pts', 'lane': 10, 'scoreIdentifier': '0000', 'exists': True, 'workoutresult': '--', 'mobileScoreDisplay': '18:37.69, 72 pts', 'rank': '4', 'heat': 1, 'points': '72', 'scoreDisplay': '18:37.69', 'location': '', 'time': '18:37.69', 'judge': '', 'workoutrank': '4'}, {'ordinal': 6, 'breakdown': '80 pts', 'lane': 10, 'scoreIdentifier': '0000', 'exists': True, 'workoutresult': '--', 'mobileScoreDisplay': '11:53.86, 80 pts', 'rank': '3', 'heat': 1, 'points': '80', 'scoreDisplay': '11:53.86', 'location': '', 'time': '11:53.86', 'judge': '', 'workoutrank': '3'}, {'ordinal': 7, 'breakdown': '72 pts', 'lane': 9, 'scoreIdentifier': '0000', 'exists': True, 'workoutresult': '--', 'mobileScoreDisplay': '7:33.10, 72 pts', 'rank': '4', 'heat': 1, 'points': '72', 'scoreDisplay': '7:33.10', 'location': '', 'time': '7:33.10', 'judge': '', 'workoutrank': '4'}, {'ordinal': 8, 'breakdown': '72 pts', 'lane': 2, 'scoreIdentifier': '0000', 'exists': True, 'workoutresult': '--', 'mobileScoreDisplay': '10:58.58, 72 pts', 'rank': '4', 'heat': 1, 'points': '72', 'scoreDisplay': '10:58.58', 'location': '', 'time': '10:58.58', 'judge': '', 'workoutrank': '4'}, {'ordinal': 9, 'breakdown': '64 pts', 'lane': 9, 'scoreIdentifier': '0000', 'exists': True, 'workoutresult': '--', 'mobileScoreDisplay': '10:43.27, 64 pts', 'rank': '5', 'heat': 1, 'points': '64', 'scoreDisplay': '10:43.27', 'location': '', 'time': '10:43.27', 'judge': '', 'workoutrank': '5'}, {'ordinal': 10, 'breakdown': '80 pts', 'lane': 10, 'scoreIdentifier': '0000', 'exists': True, 'workoutresult': '--', 'mobileScoreDisplay': '10:06.12, 80 pts', 'rank': '3', 'heat': 1, 'points': '80', 'scoreDisplay': '10:06.12', 'location': '', 'time': '10:06.12', 'judge': '', 'workoutrank': '3'}, {'ordinal': 11, 'breakdown': '90 pts', 'lane': 10, 'scoreIdentifier': '0000', 'exists': True, 'workoutresult': '--', 'mobileScoreDisplay': '4:27.27, 90 pts', 'rank': '2', 'heat': 1, 'points': '90', 'scoreDisplay': '4:27.27', 'location': '', 'time': '4:27.27', 'judge': '', 'workoutrank': '2'}]",False,False
1,,,,49,460,2162,Matthew Swift,AU,AU,03,Matthew,X,177 cm,Swift,0,d409a-P2162_3-184.jpg,Australasia,0,Australasia,Australasia,ACT,0,187 lbs,2,786,"[{'ordinal': 1, 'breakdown': '90 pts', 'lane': 1, 'scoreIdentifier': '0000', 'exists': True, 'workoutresult': '--', 'mobileScoreDisplay': '3:40.58, 90 pts', 'rank': '2', 'heat': 2, 'points': '90', 'scoreDisplay': '3:40.58', 'location': '', 'time': '3:40.58', 'judge': '', 'workoutrank': '2'}, {'ordinal': 2, 'breakdown': '90 pts', 'lane': 5, 'scoreIdentifier': '0000', 'exists': True, 'workoutresult': '--', 'mobileScoreDisplay': '2:29.49, 90 pts', 'rank': '2', 'heat': 1, 'points': '90', 'scoreDisplay': '2:29.49', 'location': '', 'time': '2:29.49', 'judge': '', 'workoutrank': '2'}, {'ordinal': 3, 'breakdown': '80 pts', 'lane': 5, 'scoreIdentifier': '0000', 'exists': True, 'workoutresult': '--', 'mobileScoreDisplay': '5:33.59, 80 pts', 'rank': '3', 'heat': 1, 'points': '80', 'scoreDisplay': '5:33.59', 'location': '', 'time': '5:33.59', 'judge': '', 'workoutrank': '3'}, {'ordinal': 4, 'breakdown': '80 pts', 'lane': 9, 'scoreIdentifier': '0000', 'exists': True, 'workoutresult': '--', 'mobileScoreDisplay': '315 lb, 80 pts', 'rank': '3T', 'heat': 1, 'points': '80', 'scoreDisplay': '315 lb', 'location': '', 'time': '315', 'judge': '', 'workoutrank': '3T'}, {'ordinal': 5, 'breakdown': '38 pts', 'lane': 9, 'scoreIdentifier': '0000', 'exists': True, 'workoutresult': '--', 'mobileScoreDisplay': '19:46.04, 38 pts', 'rank': '9', 'heat': 1, 'points': '38', 'scoreDisplay': '19:46.04', 'location': '', 'time': '19:46.04', 'judge': '', 'workoutrank': '9'}, {'ordinal': 6, 'breakdown': '64 pts', 'lane': 9, 'scoreIdentifier': '0000', 'exists': True, 'workoutresult': '--', 'mobileScoreDisplay': '12:13.86, 64 pts', 'rank': '5', 'heat': 1, 'points': '64', 'scoreDisplay': '12:13.86', 'location': '', 'time': '12:13.86', 'judge': '', 'workoutrank': '5'}, {'ordinal': 7, 'breakdown': '100 pts', 'lane': 8, 'scoreIdentifier': '0000', 'exists': True, 'workoutresult': '--', 'mobileScoreDisplay': '6:28.06, 100 pts', 'rank': '1', 'heat': 1, 'points': '100', 'scoreDisplay': '6:28.06', 'location': '', 'time': '6:28.06', 'judge': '', 'workoutrank': '1'}, {'ordinal': 8, 'breakdown': '56 pts', 'lane': 1, 'scoreIdentifier': '0000', 'exists': True, 'workoutresult': '--', 'mobileScoreDisplay': 'CAP+1, 56 pts', 'rank': '6', 'heat': 1, 'points': '56', 'scoreDisplay': 'CAP+1', 'location': '', 'time': 'CAP+1', 'judge': '', 'workoutrank': '6'}, {'ordinal': 9, 'breakdown': '32 pts', 'lane': 8, 'scoreIdentifier': '0000', 'exists': True, 'workoutresult': '--', 'mobileScoreDisplay': '11:38.45, 32 pts', 'rank': '10', 'heat': 1, 'points': '32', 'scoreDisplay': '11:38.45', 'location': '', 'time': '11:38.45', 'judge': '', 'workoutrank': '10'}, {'ordinal': 10, 'breakdown': '56 pts', 'lane': 11, 'scoreIdentifier': '0000', 'exists': True, 'workoutresult': '--', 'mobileScoreDisplay': '11:18.48, 56 pts', 'rank': '6', 'heat': 1, 'points': '56', 'scoreDisplay': '11:18.48', 'location': '', 'time': '11:18.48', 'judge': '', 'workoutrank': '6'}, {'ordinal': 11, 'breakdown': '100 pts', 'lane': 11, 'scoreIdentifier': '0000', 'exists': True, 'workoutresult': '--', 'mobileScoreDisplay': '4:01.88, 100 pts', 'rank': '1', 'heat': 1, 'points': '100', 'scoreDisplay': '4:01.88', 'location': '', 'time': '4:01.88', 'judge': '', 'workoutrank': '1'}]",False,False
2,,26844.0,CrossFit Fort Vancouver,45,464,14023,Nathan Loren,US,US,03,Nathan,X,"5'11""",Loren,0,da56b-P14023_9-184.jpg,West Coast,0,West Coast,West Coast,ACT,0,187 lbs,3,672,"[{'ordinal': 1, 'breakdown': '72 pts', 'lane': 6, 'scoreIdentifier': '0000', 'exists': True, 'workoutresult': '--', 'mobileScoreDisplay': '3:41.36, 72 pts', 'rank': '4', 'heat': 1, 'points': '72', 'scoreDisplay': '3:41.36', 'location': '', 'time': '3:41.36', 'judge': '', 'workoutrank': '4'}, {'ordinal': 2, 'breakdown': '44 pts', 'lane': 3, 'scoreIdentifier': '0000', 'exists': True, 'workoutresult': '--', 'mobileScoreDisplay': 'CAP+3, 44 pts', 'rank': '8T', 'heat': 1, 'points': '44', 'scoreDisplay': 'CAP+3', 'location': '', 'time': 'CAP+3', 'judge': '', 'workoutrank': '8T'}, {'ordinal': 3, 'breakdown': '20 pts', 'lane': 3, 'scoreIdentifier': '0000', 'exists': True, 'workoutresult': '--', 'mobileScoreDisplay': '7:23.03, 20 pts', 'rank': '13', 'heat': 1, 'points': '20', 'scoreDisplay': '7:23.03', 'location': '', 'time': '7:23.03', 'judge': '', 'workoutrank': '13'}, {'ordinal': 4, 'breakdown': '8 pts', 'lane': 5, 'scoreIdentifier': '0000', 'exists': True, 'workoutresult': '--', 'mobileScoreDisplay': '250 lb, 8 pts', 'rank': '16', 'heat': 1, 'points': '8', 'scoreDisplay': '250 lb', 'location': '', 'time': '250', 'judge': '', 'workoutrank': '16'}, {'ordinal': 5, 'breakdown': '56 pts', 'lane': 5, 'scoreIdentifier': '0000', 'exists': True, 'workoutresult': '--', 'mobileScoreDisplay': '18:58.12, 56 pts', 'rank': '6', 'heat': 1, 'points': '56', 'scoreDisplay': '18:58.12', 'location': '', 'time': '18:58.12', 'judge': '', 'workoutrank': '6'}, {'ordinal': 6, 'breakdown': '100 pts', 'lane': 5, 'scoreIdentifier': '0000', 'exists': True, 'workoutresult': '--', 'mobileScoreDisplay': '10:33.40, 100 pts', 'rank': '1', 'heat': 1, 'points': '100', 'scoreDisplay': '10:33.40', 'location': '', 'time': '10:33.40', 'judge': '', 'workoutrank': '1'}, {'ordinal': 7, 'breakdown': '80 pts', 'lane': 11, 'scoreIdentifier': '0000', 'exists': True, 'workoutresult': '--', 'mobileScoreDisplay': '7:30.83, 80 pts', 'rank': '3', 'heat': 1, 'points': '80', 'scoreDisplay': '7:30.83', 'location': '', 'time': '7:30.83', 'judge': '', 'workoutrank': '3'}, {'ordinal': 8, 'breakdown': '38 pts', 'lane': 6, 'scoreIdentifier': '0000', 'exists': True, 'workoutresult': '--', 'mobileScoreDisplay': 'CAP+4, 38 pts', 'rank': '9', 'heat': 1, 'points': '38', 'scoreDisplay': 'CAP+4', 'location': '', 'time': 'CAP+4', 'judge': '', 'workoutrank': '9'}, {'ordinal': 9, 'breakdown': '100 pts', 'lane': 11, 'scoreIdentifier': '0000', 'exists': True, 'workoutresult': '--', 'mobileScoreDisplay': '9:49.17, 100 pts', 'rank': '1', 'heat': 1, 'points': '100', 'scoreDisplay': '9:49.17', 'location': '', 'time': '9:49.17', 'judge': '', 'workoutrank': '1'}, {'ordinal': 10, 'breakdown': '90 pts', 'lane': 9, 'scoreIdentifier': '0000', 'exists': True, 'workoutresult': '--', 'mobileScoreDisplay': '9:12.84, 90 pts', 'rank': '2', 'heat': 1, 'points': '90', 'scoreDisplay': '9:12.84', 'location': '', 'time': '9:12.84', 'judge': '', 'workoutrank': '2'}, {'ordinal': 11, 'breakdown': '64 pts', 'lane': 9, 'scoreIdentifier': '0000', 'exists': True, 'workoutresult': '--', 'mobileScoreDisplay': '4:57.97, 64 pts', 'rank': '5', 'heat': 1, 'points': '64', 'scoreDisplay': '4:57.97', 'location': '', 'time': '4:57.97', 'judge': '', 'workoutrank': '5'}]",False,False
3,,26867.0,CrossFit Pandora's Box,47,462,7772,Brent Maier,US,US,03,Brent,X,"6'2""",Maier,0,2f9f9-P7772_4-184.jpg,South West,0,South West,South West,ACT,0,208 lbs,4,622,"[{'ordinal': 1, 'breakdown': '80 pts', 'lane': 8, 'scoreIdentifier': '0000', 'exists': True, 'workoutresult': '--', 'mobileScoreDisplay': '3:40.80, 80 pts', 'rank': '3', 'heat': 1, 'points': '80', 'scoreDisplay': '3:40.80', 'location': '', 'time': '3:40.80', 'judge': '', 'workoutrank': '3'}, {'ordinal': 2, 'breakdown': '44 pts', 'lane': 4, 'scoreIdentifier': '0000', 'exists': True, 'workoutresult': '--', 'mobileScoreDisplay': 'CAP+3, 44 pts', 'rank': '8T', 'heat': 1, 'points': '44', 'scoreDisplay': 'CAP+3', 'location': '', 'time': 'CAP+3', 'judge': '', 'workoutrank': '8T'}, {'ordinal': 3, 'breakdown': '50 pts', 'lane': 4, 'scoreIdentifier': '0000', 'exists': True, 'workoutresult': '--', 'mobileScoreDisplay': '5:51.44, 50 pts', 'rank': '7', 'heat': 1, 'points': '50', 'scoreDisplay': '5:51.44', 'location': '', 'time': '5:51.44', 'judge': '', 'workoutrank': '7'}, {'ordinal': 4, 'breakdown': '44 pts', 'lane': 7, 'scoreIdentifier': '0000', 'exists': True, 'workoutresult': '--', 'mobileScoreDisplay': '285 lb, 44 pts', 'rank': '8', 'heat': 1, 'points': '44', 'scoreDisplay': '285 lb', 'location': '', 'time': '285', 'judge': '', 'workoutrank': '8'}, {'ordinal': 5, 'breakdown': '80 pts', 'lane': 7, 'scoreIdentifier': '0000', 'exists': True, 'workoutresult': '--', 'mobileScoreDisplay': '18:30.84, 80 pts', 'rank': '3', 'heat': 1, 'points': '80', 'scoreDisplay': '18:30.84', 'location': '', 'time': '18:30.84', 'judge': '', 'workoutrank': '3'}, {'ordinal': 6, 'breakdown': '90 pts', 'lane': 7, 'scoreIdentifier': '0000', 'exists': True, 'workoutresult': '--', 'mobileScoreDisplay': '10:49.42, 90 pts', 'rank': '2', 'heat': 1, 'points': '90', 'scoreDisplay': '10:49.42', 'location': '', 'time': '10:49.42', 'judge': '', 'workoutrank': '2'}, {'ordinal': 7, 'breakdown': '38 pts', 'lane': 7, 'scoreIdentifier': '0000', 'exists': True, 'workoutresult': '--', 'mobileScoreDisplay': '8:18.38, 38 pts', 'rank': '9', 'heat': 1, 'points': '38', 'scoreDisplay': '8:18.38', 'location': '', 'time': '8:18.38', 'judge': '', 'workoutrank': '9'}, {'ordinal': 8, 'breakdown': '44 pts', 'lane': 3, 'scoreIdentifier': '0000', 'exists': True, 'workoutresult': '--', 'mobileScoreDisplay': 'CAP+3, 44 pts', 'rank': '8', 'heat': 1, 'points': '44', 'scoreDisplay': 'CAP+3', 'location': '', 'time': 'CAP+3', 'judge': '', 'workoutrank': '8'}, {'ordinal': 9, 'breakdown': '16 pts', 'lane': 7, 'scoreIdentifier': '0000', 'exists': True, 'workoutresult': '--', 'mobileScoreDisplay': '13:44.17, 16 pts', 'rank': '14', 'heat': 1, 'points': '16', 'scoreDisplay': '13:44.17', 'location': '', 'time': '13:44.17', 'judge': '', 'workoutrank': '14'}, {'ordinal': 10, 'breakdown': '64 pts', 'lane': 8, 'scoreIdentifier': '0000', 'exists': True, 'workoutresult': '--', 'mobileScoreDisplay': '11:15.89, 64 pts', 'rank': '5', 'heat': 1, 'points': '64', 'scoreDisplay': '11:15.89', 'location': '', 'time': '11:15.89', 'judge': '', 'workoutrank': '5'}, {'ordinal': 11, 'breakdown': '72 pts', 'lane': 8, 'scoreIdentifier': '0000', 'exists': True, 'workoutresult': '--', 'mobileScoreDisplay': '4:51.68, 72 pts', 'rank': '4', 'heat': 1, 'points': '72', 'scoreDisplay': '4:51.68', 'location': '', 'time': '4:51.68', 'judge': '', 'workoutrank': '4'}]",False,False
4,,,,45,452,306978,Artur Komorowski,PL,PL,03,Artur,X,178 cm,Komorowski,0,eb783-P306978_4-184.jpg,Europe North,0,Europe North,Europe North,ACT,0,87 kg,5,608,"[{'ordinal': 1, 'breakdown': '100 pts', 'lane': 8, 'scoreIdentifier': '0000', 'exists': True, 'workoutresult': '--', 'mobileScoreDisplay': '3:35.58, 100 pts', 'rank': '1', 'heat': 2, 'points': '100', 'scoreDisplay': '3:35.58', 'location': '', 'time': '3:35.58', 'judge': '', 'workoutrank': '1'}, {'ordinal': 2, 'breakdown': '80 pts', 'lane': 10, 'scoreIdentifier': '0000', 'exists': True, 'workoutresult': '--', 'mobileScoreDisplay': '2:39.25, 80 pts', 'rank': '3', 'heat': 1, 'points': '80', 'scoreDisplay': '2:39.25', 'location': '', 'time': '2:39.25', 'judge': '', 'workoutrank': '3'}, {'ordinal': 3, 'breakdown': '28 pts', 'lane': 10, 'scoreIdentifier': '0000', 'exists': True, 'workoutresult': '--', 'mobileScoreDisplay': '6:52.22, 28 pts', 'rank': '11', 'heat': 1, 'points': '28', 'scoreDisplay': '6:52.22', 'location': '', 'time': '6:52.22', 'judge': '', 'workoutrank': '11'}, {'ordinal': 4, 'breakdown': '56 pts', 'lane': 8, 'scoreIdentifier': '0000', 'exists': True, 'workoutresult': '--', 'mobileScoreDisplay': '295 lb, 56 pts', 'rank': '6T', 'heat': 1, 'points': '56', 'scoreDisplay': '295 lb', 'location': '', 'time': '295', 'judge': '', 'workoutrank': '6T'}, {'ordinal': 5, 'breakdown': '50 pts', 'lane': 8, 'scoreIdentifier': '0000', 'exists': True, 'workoutresult': '--', 'mobileScoreDisplay': '19:14.42, 50 pts', 'rank': '7', 'heat': 1, 'points': '50', 'scoreDisplay': '19:14.42', 'location': '', 'time': '19:14.42', 'judge': '', 'workoutrank': '7'}, {'ordinal': 6, 'breakdown': '50 pts', 'lane': 8, 'scoreIdentifier': '0000', 'exists': True, 'workoutresult': '--', 'mobileScoreDisplay': '12:32.05, 50 pts', 'rank': '7', 'heat': 1, 'points': '50', 'scoreDisplay': '12:32.05', 'location': '', 'time': '12:32.05', 'judge': '', 'workoutrank': '7'}, {'ordinal': 7, 'breakdown': '44 pts', 'lane': 10, 'scoreIdentifier': '0000', 'exists': True, 'workoutresult': '--', 'mobileScoreDisplay': '8:17.88, 44 pts', 'rank': '8', 'heat': 1, 'points': '44', 'scoreDisplay': '8:17.88', 'location': '', 'time': '8:17.88', 'judge': '', 'workoutrank': '8'}, {'ordinal': 8, 'breakdown': '50 pts', 'lane': 4, 'scoreIdentifier': '0000', 'exists': True, 'workoutresult': '--', 'mobileScoreDisplay': 'CAP+2, 50 pts', 'rank': '7', 'heat': 1, 'points': '50', 'scoreDisplay': 'CAP+2', 'location': '', 'time': 'CAP+2', 'judge': '', 'workoutrank': '7'}, {'ordinal': 9, 'breakdown': '50 pts', 'lane': 10, 'scoreIdentifier': '0000', 'exists': True, 'workoutresult': '--', 'mobileScoreDisplay': '11:00.73, 50 pts', 'rank': '7', 'heat': 1, 'points': '50', 'scoreDisplay': '11:00.73', 'location': '', 'time': '11:00.73', 'judge': '', 'workoutrank': '7'}, {'ordinal': 10, 'breakdown': '44 pts', 'lane': 12, 'scoreIdentifier': '0000', 'exists': True, 'workoutresult': '--', 'mobileScoreDisplay': 'CAP, 44 pts', 'rank': '8T', 'heat': 1, 'points': '44', 'scoreDisplay': 'CAP', 'location': '', 'time': 'CAP', 'judge': '', 'workoutrank': '8T'}, {'ordinal': 11, 'breakdown': '56 pts', 'lane': 12, 'scoreIdentifier': '0000', 'exists': True, 'workoutresult': '--', 'mobileScoreDisplay': '5:01.29, 56 pts', 'rank': '6', 'heat': 1, 'points': '56', 'scoreDisplay': '5:01.29', 'location': '', 'time': '5:01.29', 'judge': '', 'workoutrank': '6'}]",False,False
5,,,,45,451,278581,Giulio Silvino,IT,IT,03,Giulio,X,175 cm,Silvino,0,0b1b2-P278581_1-184.jpg,Europe South,0,Europe South,Europe South,ACT,0,81 kg,6,506,"[{'ordinal': 1, 'breakdown': '50 pts', 'lane': 9, 'scoreIdentifier': '0000', 'exists': True, 'workoutresult': '--', 'mobileScoreDisplay': '4:05.69, 50 pts', 'rank': '7', 'heat': 2, 'points': '50', 'scoreDisplay': '4:05.69', 'location': '', 'time': '4:05.69', 'judge': '', 'workoutrank': '7'}, {'ordinal': 2, 'breakdown': '50 pts', 'lane': 9, 'scoreIdentifier': '0000', 'exists': True, 'workoutresult': '--', 'mobileScoreDisplay': 'CAP+2, 50 pts', 'rank': '7', 'heat': 1, 'points': '50', 'scoreDisplay': 'CAP+2', 'location': '', 'time': 'CAP+2', 'judge': '', 'workoutrank': '7'}, {'ordinal': 3, 'breakdown': '90 pts', 'lane': 9, 'scoreIdentifier': '0000', 'exists': True, 'workoutresult': '--', 'mobileScoreDisplay': '5:15.01, 90 pts', 'rank': '2', 'heat': 1, 'points': '90', 'scoreDisplay': '5:15.01', 'location': '', 'time': '5:15.01', 'judge': '', 'workoutrank': '2'}, {'ordinal': 4, 'breakdown': '100 pts', 'lane': 11, 'scoreIdentifier': '0000', 'exists': True, 'workoutresult': '--', 'mobileScoreDisplay': '350 lb, 100 pts', 'rank': '1', 'heat': 1, 'points': '100', 'scoreDisplay': '350 lb', 'location': '', 'time': '350', 'judge': '', 'workoutrank': '1'}, {'ordinal': 5, 'breakdown': '16 pts', 'lane': 11, 'scoreIdentifier': '0000', 'exists': True, 'workoutresult': '--', 'mobileScoreDisplay': '20:29.30, 16 pts', 'rank': '14', 'heat': 1, 'points': '16', 'scoreDisplay': '20:29.30', 'location': '', 'time': '20:29.30', 'judge': '', 'workoutrank': '14'}, {'ordinal': 6, 'breakdown': '38 pts', 'lane': 11, 'scoreIdentifier': '0000', 'exists': True, 'workoutresult': '--', 'mobileScoreDisplay': '13:24.00, 38 pts', 'rank': '9', 'heat': 1, 'points': '38', 'scoreDisplay': '13:24.00', 'location': '', 'time': '13:24.00', 'judge': '', 'workoutrank': '9'}, {'ordinal': 7, 'breakdown': '64 pts', 'lane': 6, 'scoreIdentifier': '0000', 'exists': True, 'workoutresult': '--', 'mobileScoreDisplay': '7:34.82, 64 pts', 'rank': '5', 'heat': 1, 'points': '64', 'scoreDisplay': '7:34.82', 'location': '', 'time': '7:34.82', 'judge': '', 'workoutrank': '5'}, {'ordinal': 8, 'breakdown': '12 pts', 'lane': 5, 'scoreIdentifier': '0000', 'exists': True, 'workoutresult': '--', 'mobileScoreDisplay': 'CAP+10, 12 pts', 'rank': '15', 'heat': 1, 'points': '12', 'scoreDisplay': 'CAP+10', 'location': '', 'time': 'CAP+10', 'judge': '', 'workoutrank': '15'}, {'ordinal': 9, 'breakdown': '28 pts', 'lane': 6, 'scoreIdentifier': '0000', 'exists': True, 'workoutresult': '--', 'mobileScoreDisplay': '12:04.42, 28 pts', 'rank': '11', 'heat': 1, 'points': '28', 'scoreDisplay': '12:04.42', 'location': '', 'time': '12:04.42', 'judge': '', 'workoutrank': '11'}, {'ordinal': 10, 'breakdown': '20 pts', 'lane': 13, 'scoreIdentifier': '0000', 'exists': True, 'workoutresult': '--', 'mobileScoreDisplay': 'CAP+10, 20 pts', 'rank': '13T', 'heat': 1, 'points': '20', 'scoreDisplay': 'CAP+10', 'location': '', 'time': 'CAP+10', 'judge': '', 'workoutrank': '13T'}, {'ordinal': 11, 'breakdown': '38 pts', 'lane': 13, 'scoreIdentifier': '0000', 'exists': True, 'workoutresult': '--', 'mobileScoreDisplay': '5:17.87, 38 pts', 'rank': '9', 'heat': 1, 'points': '38', 'scoreDisplay': '5:17.87', 'location': '', 'time': '5:17.87', 'judge': '', 'workoutrank': '9'}]",False,False
6,,26890.0,CrossFit Krypton,46,459,233513,David Jones,US,US,03,David,X,"5'9""",Jones,0,91b97-P233513_5-184.jpg,Mid Atlantic,0,Mid Atlantic,Mid Atlantic,ACT,0,185 lbs,7,506,"[{'ordinal': 1, 'breakdown': '12 pts', 'lane': 2, 'scoreIdentifier': '0000', 'exists': True, 'workoutresult': '--', 'mobileScoreDisplay': '5:16.94, 12 pts', 'rank': '15', 'heat': 2, 'points': '12', 'scoreDisplay': '5:16.94', 'location': '', 'time': '5:16.94', 'judge': '', 'workoutrank': '15'}, {'ordinal': 2, 'breakdown': '56 pts', 'lane': 13, 'scoreIdentifier': '0000', 'exists': True, 'workoutresult': '--', 'mobileScoreDisplay': '3:11.91, 56 pts', 'rank': '6', 'heat': 1, 'points': '56', 'scoreDisplay': '3:11.91', 'location': '', 'time': '3:11.91', 'judge': '', 'workoutrank': '6'}, {'ordinal': 3, 'breakdown': '16 pts', 'lane': 13, 'scoreIdentifier': '0000', 'exists': True, 'workoutresult': '--', 'mobileScoreDisplay': '7:31.58, 16 pts', 'rank': '14', 'heat': 1, 'points': '16', 'scoreDisplay': '7:31.58', 'location': '', 'time': '7:31.58', 'judge': '', 'workoutrank': '14'}, {'ordinal': 4, 'breakdown': '16 pts', 'lane': 2, 'scoreIdentifier': '0000', 'exists': True, 'workoutresult': '--', 'mobileScoreDisplay': '260 lb, 16 pts', 'rank': '14T', 'heat': 1, 'points': '16', 'scoreDisplay': '260 lb', 'location': '', 'time': '260', 'judge': '', 'workoutrank': '14T'}, {'ordinal': 5, 'breakdown': '28 pts', 'lane': 2, 'scoreIdentifier': '0000', 'exists': True, 'workoutresult': '--', 'mobileScoreDisplay': '20:11.84, 28 pts', 'rank': '11', 'heat': 1, 'points': '28', 'scoreDisplay': '20:11.84', 'location': '', 'time': '20:11.84', 'judge': '', 'workoutrank': '11'}, {'ordinal': 6, 'breakdown': '72 pts', 'lane': 2, 'scoreIdentifier': '0000', 'exists': True, 'workoutresult': '--', 'mobileScoreDisplay': '12:12.85, 72 pts', 'rank': '4', 'heat': 1, 'points': '72', 'scoreDisplay': '12:12.85', 'location': '', 'time': '12:12.85', 'judge': '', 'workoutrank': '4'}, {'ordinal': 7, 'breakdown': '32 pts', 'lane': 2, 'scoreIdentifier': '0000', 'exists': True, 'workoutresult': '--', 'mobileScoreDisplay': '8:19.93, 32 pts', 'rank': '10', 'heat': 1, 'points': '32', 'scoreDisplay': '8:19.93', 'location': '', 'time': '8:19.93', 'judge': '', 'workoutrank': '10'}, {'ordinal': 8, 'breakdown': '80 pts', 'lane': 13, 'scoreIdentifier': '0000', 'exists': True, 'workoutresult': '--', 'mobileScoreDisplay': '10:50.68, 80 pts', 'rank': '3', 'heat': 1, 'points': '80', 'scoreDisplay': '10:50.68', 'location': '', 'time': '10:50.68', 'judge': '', 'workoutrank': '3'}, {'ordinal': 9, 'breakdown': '90 pts', 'lane': 2, 'scoreIdentifier': '0000', 'exists': True, 'workoutresult': '--', 'mobileScoreDisplay': '10:17.75, 90 pts', 'rank': '2', 'heat': 1, 'points': '90', 'scoreDisplay': '10:17.75', 'location': '', 'time': '10:17.75', 'judge': '', 'workoutrank': '2'}, {'ordinal': 10, 'breakdown': '72 pts', 'lane': 14, 'scoreIdentifier': '0000', 'exists': True, 'workoutresult': '--', 'mobileScoreDisplay': '10:28.79, 72 pts', 'rank': '4', 'heat': 1, 'points': '72', 'scoreDisplay': '10:28.79', 'location': '', 'time': '10:28.79', 'judge': '', 'workoutrank': '4'}, {'ordinal': 11, 'breakdown': '32 pts', 'lane': 14, 'scoreIdentifier': '0000', 'exists': True, 'workoutresult': '--', 'mobileScoreDisplay': '5:35.90, 32 pts', 'rank': '10', 'heat': 1, 'points': '32', 'scoreDisplay': '5:35.90', 'location': '', 'time': '5:35.90', 'judge': '', 'workoutrank': '10'}]",False,False
7,,,,45,461,8033,Ryan Taylor,US,US,03,Ryan,X,"5'6""",Taylor,0,57b5e-P8033_7-184.jpg,Central East,0,Central East,Central East,ACT,0,182 lbs,8,490,"[{'ordinal': 1, 'breakdown': '20 pts', 'lane': 9, 'scoreIdentifier': '0000', 'exists': True, 'workoutresult': '--', 'mobileScoreDisplay': '4:47.50, 20 pts', 'rank': '13', 'heat': 1, 'points': '20', 'scoreDisplay': '4:47.50', 'location': '', 'time': '4:47.50', 'judge': '', 'workoutrank': '13'}, {'ordinal': 2, 'breakdown': '44 pts', 'lane': 14, 'scoreIdentifier': '0000', 'exists': True, 'workoutresult': '--', 'mobileScoreDisplay': 'CAP+3, 44 pts', 'rank': '8T', 'heat': 1, 'points': '44', 'scoreDisplay': 'CAP+3', 'location': '', 'time': 'CAP+3', 'judge': '', 'workoutrank': '8T'}, {'ordinal': 3, 'breakdown': '72 pts', 'lane': 14, 'scoreIdentifier': '0000', 'exists': True, 'workoutresult': '--', 'mobileScoreDisplay': '5:38.88, 72 pts', 'rank': '4', 'heat': 1, 'points': '72', 'scoreDisplay': '5:38.88', 'location': '', 'time': '5:38.88', 'judge': '', 'workoutrank': '4'}, {'ordinal': 4, 'breakdown': '28 pts', 'lane': 14, 'scoreIdentifier': '0000', 'exists': True, 'workoutresult': '--', 'mobileScoreDisplay': '275 lb, 28 pts', 'rank': '11T', 'heat': 1, 'points': '28', 'scoreDisplay': '275 lb', 'location': '', 'time': '275', 'judge': '', 'workoutrank': '11T'}, {'ordinal': 5, 'breakdown': '44 pts', 'lane': 14, 'scoreIdentifier': '0000', 'exists': True, 'workoutresult': '--', 'mobileScoreDisplay': '19:38.24, 44 pts', 'rank': '8', 'heat': 1, 'points': '44', 'scoreDisplay': '19:38.24', 'location': '', 'time': '19:38.24', 'judge': '', 'workoutrank': '8'}, {'ordinal': 6, 'breakdown': '24 pts', 'lane': 14, 'scoreIdentifier': '0000', 'exists': True, 'workoutresult': '--', 'mobileScoreDisplay': '14:12.18, 24 pts', 'rank': '12', 'heat': 1, 'points': '24', 'scoreDisplay': '14:12.18', 'location': '', 'time': '14:12.18', 'judge': '', 'workoutrank': '12'}, {'ordinal': 7, 'breakdown': '50 pts', 'lane': 14, 'scoreIdentifier': '0000', 'exists': True, 'workoutresult': '--', 'mobileScoreDisplay': '7:48.77, 50 pts', 'rank': '7', 'heat': 1, 'points': '50', 'scoreDisplay': '7:48.77', 'location': '', 'time': '7:48.77', 'judge': '', 'workoutrank': '7'}, {'ordinal': 8, 'breakdown': '90 pts', 'lane': 12, 'scoreIdentifier': '0000', 'exists': True, 'workoutresult': '--', 'mobileScoreDisplay': '10:47.56, 90 pts', 'rank': '2', 'heat': 1, 'points': '90', 'scoreDisplay': '10:47.56', 'location': '', 'time': '10:47.56', 'judge': '', 'workoutrank': '2'}, {'ordinal': 9, 'breakdown': '56 pts', 'lane': 14, 'scoreIdentifier': '0000', 'exists': True, 'workoutresult': '--', 'mobileScoreDisplay': '10:56.52, 56 pts', 'rank': '6', 'heat': 1, 'points': '56', 'scoreDisplay': '10:56.52', 'location': '', 'time': '10:56.52', 'judge': '', 'workoutrank': '6'}, {'ordinal': 10, 'breakdown': '12 pts', 'lane': 7, 'scoreIdentifier': '0000', 'exists': True, 'workoutresult': '--', 'mobileScoreDisplay': 'CAP+28, 12 pts', 'rank': '15', 'heat': 1, 'points': '12', 'scoreDisplay': 'CAP+28', 'location': '', 'time': 'CAP+28', 'judge': '', 'workoutrank': '15'}, {'ordinal': 11, 'breakdown': '50 pts', 'lane': 7, 'scoreIdentifier': '0000', 'exists': True, 'workoutresult': '--', 'mobileScoreDisplay': '5:01.96, 50 pts', 'rank': '7', 'heat': 1, 'points': '50', 'scoreDisplay': '5:01.96', 'location': '', 'time': '5:01.96', 'judge': '', 'workoutrank': '7'}]",False,False
8,,,,46,458,7376,Chris Exarhos,US,US,03,Chris,X,"5'10""",Exarhos,0,bdcbd-P7376_4-184.jpg,West Coast,0,West Coast,West Coast,ACT,0,192 lbs,9,486,"[{'ordinal': 1, 'breakdown': '56 pts', 'lane': 3, 'scoreIdentifier': '0000', 'exists': True, 'workoutresult': '--', 'mobileScoreDisplay': '4:00.67, 56 pts', 'rank': '6', 'heat': 2, 'points': '56', 'scoreDisplay': '4:00.67', 'location': '', 'time': '4:00.67', 'judge': '', 'workoutrank': '6'}, {'ordinal': 2, 'breakdown': '44 pts', 'lane': 6, 'scoreIdentifier': '0000', 'exists': True, 'workoutresult': '--', 'mobileScoreDisplay': 'CAP+3, 44 pts', 'rank': '8T', 'heat': 1, 'points': '44', 'scoreDisplay': 'CAP+3', 'location': '', 'time': 'CAP+3', 'judge': '', 'workoutrank': '8T'}, {'ordinal': 3, 'breakdown': '38 pts', 'lane': 6, 'scoreIdentifier': '0000', 'exists': True, 'workoutresult': '--', 'mobileScoreDisplay': '6:26.54, 38 pts', 'rank': '9', 'heat': 1, 'points': '38', 'scoreDisplay': '6:26.54', 'location': '', 'time': '6:26.54', 'judge': '', 'workoutrank': '9'}, {'ordinal': 4, 'breakdown': '28 pts', 'lane': 13, 'scoreIdentifier': '0000', 'exists': True, 'workoutresult': '--', 'mobileScoreDisplay': '275 lb, 28 pts', 'rank': '11T', 'heat': 1, 'points': '28', 'scoreDisplay': '275 lb', 'location': '', 'time': '275', 'judge': '', 'workoutrank': '11T'}, {'ordinal': 5, 'breakdown': '64 pts', 'lane': 13, 'scoreIdentifier': '0000', 'exists': True, 'workoutresult': '--', 'mobileScoreDisplay': '18:57.54, 64 pts', 'rank': '5', 'heat': 1, 'points': '64', 'scoreDisplay': '18:57.54', 'location': '', 'time': '18:57.54', 'judge': '', 'workoutrank': '5'}, {'ordinal': 6, 'breakdown': '56 pts', 'lane': 13, 'scoreIdentifier': '0000', 'exists': True, 'workoutresult': '--', 'mobileScoreDisplay': '12:17.05, 56 pts', 'rank': '6', 'heat': 1, 'points': '56', 'scoreDisplay': '12:17.05', 'location': '', 'time': '12:17.05', 'judge': '', 'workoutrank': '6'}, {'ordinal': 7, 'breakdown': '12 pts', 'lane': 12, 'scoreIdentifier': '0000', 'exists': True, 'workoutresult': '--', 'mobileScoreDisplay': '11:45.30, 12 pts', 'rank': '15', 'heat': 1, 'points': '12', 'scoreDisplay': '11:45.30', 'location': '', 'time': '11:45.30', 'judge': '', 'workoutrank': '15'}, {'ordinal': 8, 'breakdown': '28 pts', 'lane': 8, 'scoreIdentifier': '0000', 'exists': True, 'workoutresult': '--', 'mobileScoreDisplay': 'CAP+6, 28 pts', 'rank': '11', 'heat': 1, 'points': '28', 'scoreDisplay': 'CAP+6', 'location': '', 'time': 'CAP+6', 'judge': '', 'workoutrank': '11'}, {'ordinal': 9, 'breakdown': '72 pts', 'lane': 12, 'scoreIdentifier': '0000', 'exists': True, 'workoutresult': '--', 'mobileScoreDisplay': '10:41.57, 72 pts', 'rank': '4', 'heat': 1, 'points': '72', 'scoreDisplay': '10:41.57', 'location': '', 'time': '10:41.57', 'judge': '', 'workoutrank': '4'}, {'ordinal': 10, 'breakdown': '8 pts', 'lane': 6, 'scoreIdentifier': '0000', 'exists': True, 'workoutresult': '--', 'mobileScoreDisplay': 'CAP+40, 8 pts', 'rank': '16', 'heat': 1, 'points': '8', 'scoreDisplay': 'CAP+40', 'location': '', 'time': 'CAP+40', 'judge': '', 'workoutrank': '16'}, {'ordinal': 11, 'breakdown': '80 pts', 'lane': 6, 'scoreIdentifier': '0000', 'exists': True, 'workoutresult': '--', 'mobileScoreDisplay': '4:49.92, 80 pts', 'rank': '3', 'heat': 1, 'points': '80', 'scoreDisplay': '4:49.92', 'location': '', 'time': '4:49.92', 'judge': '', 'workoutrank': '3'}]",False,False
9,,,,47,467,686351,Jason Miller,US,US,03,Jason,X,"5'9""",Miller,0,c861e-P686351_4-184.jpg,North Central,0,North Central,North Central,ACT,0,225 lbs,10,480,"[{'ordinal': 1, 'breakdown': '16 pts', 'lane': 3, 'scoreIdentifier': '0000', 'exists': True, 'workoutresult': '--', 'mobileScoreDisplay': '5:03.06, 16 pts', 'rank': '14', 'heat': 1, 'points': '16', 'scoreDisplay': '5:03.06', 'location': '', 'time': '5:03.06', 'judge': '', 'workoutrank': '14'}, {'ordinal': 2, 'breakdown': '44 pts', 'lane': 17, 'scoreIdentifier': '0000', 'exists': True, 'workoutresult': '--', 'mobileScoreDisplay': 'CAP+3, 44 pts', 'rank': '8T', 'heat': 1, 'points': '44', 'scoreDisplay': 'CAP+3', 'location': '', 'time': 'CAP+3', 'judge': '', 'workoutrank': '8T'}, {'ordinal': 3, 'breakdown': '44 pts', 'lane': 17, 'scoreIdentifier': '0000', 'exists': True, 'workoutresult': '--', 'mobileScoreDisplay': '6:13.11, 44 pts', 'rank': '8', 'heat': 1, 'points': '44', 'scoreDisplay': '6:13.11', 'location': '', 'time': '6:13.11', 'judge': '', 'workoutrank': '8'}, {'ordinal': 4, 'breakdown': '80 pts', 'lane': 15, 'scoreIdentifier': '0000', 'exists': True, 'workoutresult': '--', 'mobileScoreDisplay': '315 lb, 80 pts', 'rank': '3T', 'heat': 1, 'points': '80', 'scoreDisplay': '315 lb', 'location': '', 'time': '315', 'judge': '', 'workoutrank': '3T'}, {'ordinal': 5, 'breakdown': '100 pts', 'lane': 15, 'scoreIdentifier': '0000', 'exists': True, 'workoutresult': '--', 'mobileScoreDisplay': '18:18.09, 100 pts', 'rank': '1', 'heat': 1, 'points': '100', 'scoreDisplay': '18:18.09', 'location': '', 'time': '18:18.09', 'judge': '', 'workoutrank': '1'}, {'ordinal': 6, 'breakdown': '8 pts', 'lane': 15, 'scoreIdentifier': '0000', 'exists': True, 'workoutresult': '--', 'mobileScoreDisplay': 'CAP+1, 8 pts', 'rank': '16', 'heat': 1, 'points': '8', 'scoreDisplay': 'CAP+1', 'location': '', 'time': 'CAP+1', 'judge': '', 'workoutrank': '16'}, {'ordinal': 7, 'breakdown': '16 pts', 'lane': 5, 'scoreIdentifier': '0000', 'exists': True, 'workoutresult': '--', 'mobileScoreDisplay': '11:43.55, 16 pts', 'rank': '14', 'heat': 1, 'points': '16', 'scoreDisplay': '11:43.55', 'location': '', 'time': '11:43.55', 'judge': '', 'workoutrank': '14'}, {'ordinal': 8, 'breakdown': '32 pts', 'lane': 7, 'scoreIdentifier': '0000', 'exists': True, 'workoutresult': '--', 'mobileScoreDisplay': 'CAP+5, 32 pts', 'rank': '10', 'heat': 1, 'points': '32', 'scoreDisplay': 'CAP+5', 'location': '', 'time': 'CAP+5', 'judge': '', 'workoutrank': '10'}, {'ordinal': 9, 'breakdown': '24 pts', 'lane': 5, 'scoreIdentifier': '0000', 'exists': True, 'workoutresult': '--', 'mobileScoreDisplay': '12:04.49, 24 pts', 'rank': '12', 'heat': 1, 'points': '24', 'scoreDisplay': '12:04.49', 'location': '', 'time': '12:04.49', 'judge': '', 'workoutrank': '12'}, {'ordinal': 10, 'breakdown': '100 pts', 'lane': 5, 'scoreIdentifier': '0000', 'exists': True, 'workoutresult': '--', 'mobileScoreDisplay': '8:59.54, 100 pts', 'rank': '1', 'heat': 1, 'points': '100', 'scoreDisplay': '8:59.54', 'location': '', 'time': '8:59.54', 'judge': '', 'workoutrank': '1'}, {'ordinal': 11, 'breakdown': '16 pts', 'lane': 5, 'scoreIdentifier': '0000', 'exists': True, 'workoutresult': '--', 'mobileScoreDisplay': '6:24.51, 16 pts', 'rank': '14', 'heat': 1, 'points': '16', 'scoreDisplay': '6:24.51', 'location': '', 'time': '6:24.51', 'judge': '', 'workoutrank': '14'}]",False,False
10,,,,47,466,95809,Bernard Luzi,IT,IT,03,Bernard,X,170 cm,Luzi,0,0df8d-P95809_2-184.jpg,Europe South,0,Europe South,Europe South,ACT,0,80 kg,11,462,"[{'ordinal': 1, 'breakdown': '28 pts', 'lane': 4, 'scoreIdentifier': '0000', 'exists': True, 'workoutresult': '--', 'mobileScoreDisplay': '4:24.48, 28 pts', 'rank': '11', 'heat': 1, 'points': '28', 'scoreDisplay': '4:24.48', 'location': '', 'time': '4:24.48', 'judge': '', 'workoutrank': '11'}, {'ordinal': 2, 'breakdown': '44 pts', 'lane': 2, 'scoreIdentifier': '0000', 'exists': True, 'workoutresult': '--', 'mobileScoreDisplay': 'CAP+3, 44 pts', 'rank': '8T', 'heat': 1, 'points': '44', 'scoreDisplay': 'CAP+3', 'location': '', 'time': 'CAP+3', 'judge': '', 'workoutrank': '8T'}, {'ordinal': 3, 'breakdown': '24 pts', 'lane': 2, 'scoreIdentifier': '0000', 'exists': True, 'workoutresult': '--', 'mobileScoreDisplay': '7:10.88, 24 pts', 'rank': '12', 'heat': 1, 'points': '24', 'scoreDisplay': '7:10.88', 'location': '', 'time': '7:10.88', 'judge': '', 'workoutrank': '12'}, {'ordinal': 4, 'breakdown': '16 pts', 'lane': 16, 'scoreIdentifier': '0000', 'exists': True, 'workoutresult': '--', 'mobileScoreDisplay': '260 lb, 16 pts', 'rank': '14T', 'heat': 1, 'points': '16', 'scoreDisplay': '260 lb', 'location': '', 'time': '260', 'judge': '', 'workoutrank': '14T'}, {'ordinal': 5, 'breakdown': '90 pts', 'lane': 16, 'scoreIdentifier': '0000', 'exists': True, 'workoutresult': '--', 'mobileScoreDisplay': '18:29.35, 90 pts', 'rank': '2', 'heat': 1, 'points': '90', 'scoreDisplay': '18:29.35', 'location': '', 'time': '18:29.35', 'judge': '', 'workoutrank': '2'}, {'ordinal': 6, 'breakdown': '44 pts', 'lane': 16, 'scoreIdentifier': '0000', 'exists': True, 'workoutresult': '--', 'mobileScoreDisplay': '13:16.72, 44 pts', 'rank': '8', 'heat': 1, 'points': '44', 'scoreDisplay': '13:16.72', 'location': '', 'time': '13:16.72', 'judge': '', 'workoutrank': '8'}, {'ordinal': 7, 'breakdown': '24 pts', 'lane': 13, 'scoreIdentifier': '0000', 'exists': True, 'workoutresult': '--', 'mobileScoreDisplay': '9:30.41, 24 pts', 'rank': '12', 'heat': 1, 'points': '24', 'scoreDisplay': '9:30.41', 'location': '', 'time': '9:30.41', 'judge': '', 'workoutrank': '12'}, {'ordinal': 8, 'breakdown': '100 pts', 'lane': 10, 'scoreIdentifier': '0000', 'exists': True, 'workoutresult': '--', 'mobileScoreDisplay': '9:32.27, 100 pts', 'rank': '1', 'heat': 1, 'points': '100', 'scoreDisplay': '9:32.27', 'location': '', 'time': '9:32.27', 'judge': '', 'workoutrank': '1'}, {'ordinal': 9, 'breakdown': '20 pts', 'lane': 13, 'scoreIdentifier': '0000', 'exists': True, 'workoutresult': '--', 'mobileScoreDisplay': '12:05.00, 20 pts', 'rank': '13', 'heat': 1, 'points': '20', 'scoreDisplay': '12:05.00', 'location': '', 'time': '12:05.00', 'judge': '', 'workoutrank': '13'}, {'ordinal': 10, 'breakdown': '44 pts', 'lane': 15, 'scoreIdentifier': '0000', 'exists': True, 'workoutresult': '--', 'mobileScoreDisplay': 'CAP, 44 pts', 'rank': '8T', 'heat': 1, 'points': '44', 'scoreDisplay': 'CAP', 'location': '', 'time': 'CAP', 'judge': '', 'workoutrank': '8T'}, {'ordinal': 11, 'breakdown': '28 pts', 'lane': 15, 'scoreIdentifier': '0000', 'exists': True, 'workoutresult': '--', 'mobileScoreDisplay': '5:40.27, 28 pts', 'rank': '11', 'heat': 1, 'points': '28', 'scoreDisplay': '5:40.27', 'location': '', 'time': '5:40.27', 'judge': '', 'workoutrank': '11'}]",False,False
11,,,,48,456,76101,Bob Ruano,US,US,03,Bob,X,"5'5""",Ruano,0,d6221-P76101_4-184.jpg,South East,0,South East,South East,ACT,0,165 lbs,12,410,"[{'ordinal': 1, 'breakdown': '32 pts', 'lane': 5, 'scoreIdentifier': '0000', 'exists': True, 'workoutresult': '--', 'mobileScoreDisplay': '4:15.92, 32 pts', 'rank': '10', 'heat': 2, 'points': '32', 'scoreDisplay': '4:15.92', 'location': '', 'time': '4:15.92', 'judge': '', 'workoutrank': '10'}, {'ordinal': 2, 'breakdown': '64 pts', 'lane': 7, 'scoreIdentifier': '0000', 'exists': True, 'workoutresult': '--', 'mobileScoreDisplay': '2:57.62, 64 pts', 'rank': '5', 'heat': 1, 'points': '64', 'scoreDisplay': '2:57.62', 'location': '', 'time': '2:57.62', 'judge': '', 'workoutrank': '5'}, {'ordinal': 3, 'breakdown': '4 pts', 'lane': 7, 'scoreIdentifier': '0000', 'exists': True, 'workoutresult': '--', 'mobileScoreDisplay': 'CAP+2, 4 pts', 'rank': '18', 'heat': 1, 'points': '4', 'scoreDisplay': 'CAP+2', 'location': '', 'time': 'CAP+2', 'judge': '', 'workoutrank': '18'}, {'ordinal': 4, 'breakdown': '6 pts', 'lane': 3, 'scoreIdentifier': '0000', 'exists': True, 'workoutresult': '--', 'mobileScoreDisplay': '245 lb, 6 pts', 'rank': '17', 'heat': 1, 'points': '6', 'scoreDisplay': '245 lb', 'location': '', 'time': '245', 'judge': '', 'workoutrank': '17'}, {'ordinal': 5, 'breakdown': '20 pts', 'lane': 3, 'scoreIdentifier': '0000', 'exists': True, 'workoutresult': '--', 'mobileScoreDisplay': '20:19.36, 20 pts', 'rank': '13', 'heat': 1, 'points': '20', 'scoreDisplay': '20:19.36', 'location': '', 'time': '20:19.36', 'judge': '', 'workoutrank': '13'}, {'ordinal': 6, 'breakdown': '32 pts', 'lane': 3, 'scoreIdentifier': '0000', 'exists': True, 'workoutresult': '--', 'mobileScoreDisplay': '13:41.16, 32 pts', 'rank': '10', 'heat': 1, 'points': '32', 'scoreDisplay': '13:41.16', 'location': '', 'time': '13:41.16', 'judge': '', 'workoutrank': '10'}, {'ordinal': 7, 'breakdown': '90 pts', 'lane': 1, 'scoreIdentifier': '0000', 'exists': True, 'workoutresult': '--', 'mobileScoreDisplay': '7:19.44, 90 pts', 'rank': '2', 'heat': 1, 'points': '90', 'scoreDisplay': '7:19.44', 'location': '', 'time': '7:19.44', 'judge': '', 'workoutrank': '2'}, {'ordinal': 8, 'breakdown': '24 pts', 'lane': 15, 'scoreIdentifier': '0000', 'exists': True, 'workoutresult': '--', 'mobileScoreDisplay': 'CAP+7, 24 pts', 'rank': '12', 'heat': 1, 'points': '24', 'scoreDisplay': 'CAP+7', 'location': '', 'time': 'CAP+7', 'judge': '', 'workoutrank': '12'}, {'ordinal': 9, 'breakdown': '44 pts', 'lane': 1, 'scoreIdentifier': '0000', 'exists': True, 'workoutresult': '--', 'mobileScoreDisplay': '11:21.00, 44 pts', 'rank': '8', 'heat': 1, 'points': '44', 'scoreDisplay': '11:21.00', 'location': '', 'time': '11:21.00', 'judge': '', 'workoutrank': '8'}, {'ordinal': 10, 'breakdown': '50 pts', 'lane': 4, 'scoreIdentifier': '0000', 'exists': True, 'workoutresult': '--', 'mobileScoreDisplay': '11:57.80, 50 pts', 'rank': '7', 'heat': 1, 'points': '50', 'scoreDisplay': '11:57.80', 'location': '', 'time': '11:57.80', 'judge': '', 'workoutrank': '7'}, {'ordinal': 11, 'breakdown': '44 pts', 'lane': 4, 'scoreIdentifier': '0000', 'exists': True, 'workoutresult': '--', 'mobileScoreDisplay': '5:17.48, 44 pts', 'rank': '8', 'heat': 1, 'points': '44', 'scoreDisplay': '5:17.48', 'location': '', 'time': '5:17.48', 'judge': '', 'workoutrank': '8'}]",False,False
12,,,,46,457,112592,Clint Paddock,US,US,03,Clint,X,"5'10""",Paddock,0,54cbf-P112592_2-184.jpg,North East,0,North East,North East,ACT,0,180 lbs,13,402,"[{'ordinal': 1, 'breakdown': '44 pts', 'lane': 4, 'scoreIdentifier': '0000', 'exists': True, 'workoutresult': '--', 'mobileScoreDisplay': '4:11.03, 44 pts', 'rank': '8', 'heat': 2, 'points': '44', 'scoreDisplay': '4:11.03', 'location': '', 'time': '4:11.03', 'judge': '', 'workoutrank': '8'}, {'ordinal': 2, 'breakdown': '44 pts', 'lane': 12, 'scoreIdentifier': '0000', 'exists': True, 'workoutresult': '--', 'mobileScoreDisplay': 'CAP+3, 44 pts', 'rank': '8T', 'heat': 1, 'points': '44', 'scoreDisplay': 'CAP+3', 'location': '', 'time': 'CAP+3', 'judge': '', 'workoutrank': '8T'}, {'ordinal': 3, 'breakdown': '64 pts', 'lane': 12, 'scoreIdentifier': '0000', 'exists': True, 'workoutresult': '--', 'mobileScoreDisplay': '5:40.47, 64 pts', 'rank': '5', 'heat': 1, 'points': '64', 'scoreDisplay': '5:40.47', 'location': '', 'time': '5:40.47', 'judge': '', 'workoutrank': '5'}, {'ordinal': 4, 'breakdown': '56 pts', 'lane': 6, 'scoreIdentifier': '0000', 'exists': True, 'workoutresult': '--', 'mobileScoreDisplay': '295 lb, 56 pts', 'rank': '6T', 'heat': 1, 'points': '56', 'scoreDisplay': '295 lb', 'location': '', 'time': '295', 'judge': '', 'workoutrank': '6T'}, {'ordinal': 5, 'breakdown': '8 pts', 'lane': 6, 'scoreIdentifier': '0000', 'exists': True, 'workoutresult': '--', 'mobileScoreDisplay': 'CAP+22, 8 pts', 'rank': '16', 'heat': 1, 'points': '8', 'scoreDisplay': 'CAP+22', 'location': '', 'time': 'CAP+22', 'judge': '', 'workoutrank': '16'}, {'ordinal': 6, 'breakdown': '20 pts', 'lane': 6, 'scoreIdentifier': '0000', 'exists': True, 'workoutresult': '--', 'mobileScoreDisplay': '14:47.82, 20 pts', 'rank': '13', 'heat': 1, 'points': '20', 'scoreDisplay': '14:47.82', 'location': '', 'time': '14:47.82', 'judge': '', 'workoutrank': '13'}, {'ordinal': 7, 'breakdown': '56 pts', 'lane': 3, 'scoreIdentifier': '0000', 'exists': True, 'workoutresult': '--', 'mobileScoreDisplay': '7:35.07, 56 pts', 'rank': '6', 'heat': 1, 'points': '56', 'scoreDisplay': '7:35.07', 'location': '', 'time': '7:35.07', 'judge': '', 'workoutrank': '6'}, {'ordinal': 8, 'breakdown': '16 pts', 'lane': 11, 'scoreIdentifier': '0000', 'exists': True, 'workoutresult': '--', 'mobileScoreDisplay': 'CAP+9, 16 pts', 'rank': '14', 'heat': 1, 'points': '16', 'scoreDisplay': 'CAP+9', 'location': '', 'time': 'CAP+9', 'judge': '', 'workoutrank': '14'}, {'ordinal': 9, 'breakdown': '38 pts', 'lane': 3, 'scoreIdentifier': '0000', 'exists': True, 'workoutresult': '--', 'mobileScoreDisplay': '11:31.81, 38 pts', 'rank': '9', 'heat': 1, 'points': '38', 'scoreDisplay': '11:31.81', 'location': '', 'time': '11:31.81', 'judge': '', 'workoutrank': '9'}, {'ordinal': 10, 'breakdown': '32 pts', 'lane': 16, 'scoreIdentifier': '0000', 'exists': True, 'workoutresult': '--', 'mobileScoreDisplay': 'CAP+1, 32 pts', 'rank': '10T', 'heat': 1, 'points': '32', 'scoreDisplay': 'CAP+1', 'location': '', 'time': 'CAP+1', 'judge': '', 'workoutrank': '10T'}, {'ordinal': 11, 'breakdown': '24 pts', 'lane': 16, 'scoreIdentifier': '0000', 'exists': True, 'workoutresult': '--', 'mobileScoreDisplay': '6:11.75, 24 pts', 'rank': '12', 'heat': 1, 'points': '24', 'scoreDisplay': '6:11.75', 'location': '', 'time': '6:11.75', 'judge': '', 'workoutrank': '12'}]",False,False
13,,,,45,465,13342,Bruce Thomas,US,US,03,Bruce,X,"5'6""",Thomas,0,99efa-P13342_1-184.jpg,South East,0,South East,South East,ACT,0,175 lbs,14,348,"[{'ordinal': 1, 'breakdown': '38 pts', 'lane': 5, 'scoreIdentifier': '0000', 'exists': True, 'workoutresult': '--', 'mobileScoreDisplay': '4:14.63, 38 pts', 'rank': '9', 'heat': 1, 'points': '38', 'scoreDisplay': '4:14.63', 'location': '', 'time': '4:14.63', 'judge': '', 'workoutrank': '9'}, {'ordinal': 2, 'breakdown': '8 pts', 'lane': 16, 'scoreIdentifier': '0000', 'exists': True, 'workoutresult': '--', 'mobileScoreDisplay': 'CAP+24, 8 pts', 'rank': '16T', 'heat': 1, 'points': '8', 'scoreDisplay': 'CAP+24', 'location': '', 'time': 'CAP+24', 'judge': '', 'workoutrank': '16T'}, {'ordinal': 3, 'breakdown': '12 pts', 'lane': 16, 'scoreIdentifier': '0000', 'exists': True, 'workoutresult': '--', 'mobileScoreDisplay': '7:44.35, 12 pts', 'rank': '15', 'heat': 1, 'points': '12', 'scoreDisplay': '7:44.35', 'location': '', 'time': '7:44.35', 'judge': '', 'workoutrank': '15'}, {'ordinal': 4, 'breakdown': '38 pts', 'lane': 17, 'scoreIdentifier': '0000', 'exists': True, 'workoutresult': '--', 'mobileScoreDisplay': '280 lb, 38 pts', 'rank': '9T', 'heat': 1, 'points': '38', 'scoreDisplay': '280 lb', 'location': '', 'time': '280', 'judge': '', 'workoutrank': '9T'}, {'ordinal': 5, 'breakdown': '24 pts', 'lane': 17, 'scoreIdentifier': '0000', 'exists': True, 'workoutresult': '--', 'mobileScoreDisplay': '20:14.12, 24 pts', 'rank': '12', 'heat': 1, 'points': '24', 'scoreDisplay': '20:14.12', 'location': '', 'time': '20:14.12', 'judge': '', 'workoutrank': '12'}, {'ordinal': 6, 'breakdown': '12 pts', 'lane': 17, 'scoreIdentifier': '0000', 'exists': True, 'workoutresult': '--', 'mobileScoreDisplay': '15:40.04, 12 pts', 'rank': '15', 'heat': 1, 'points': '12', 'scoreDisplay': '15:40.04', 'location': '', 'time': '15:40.04', 'judge': '', 'workoutrank': '15'}, {'ordinal': 7, 'breakdown': '28 pts', 'lane': 16, 'scoreIdentifier': '0000', 'exists': True, 'workoutresult': '--', 'mobileScoreDisplay': '8:50.48, 28 pts', 'rank': '11', 'heat': 1, 'points': '28', 'scoreDisplay': '8:50.48', 'location': '', 'time': '8:50.48', 'judge': '', 'workoutrank': '11'}, {'ordinal': 8, 'breakdown': '64 pts', 'lane': 16, 'scoreIdentifier': '0000', 'exists': True, 'workoutresult': '--', 'mobileScoreDisplay': 'CAP, 64 pts', 'rank': '5', 'heat': 1, 'points': '64', 'scoreDisplay': 'CAP', 'location': '', 'time': 'CAP', 'judge': '', 'workoutrank': '5'}, {'ordinal': 9, 'breakdown': '80 pts', 'lane': 16, 'scoreIdentifier': '0000', 'exists': True, 'workoutresult': '--', 'mobileScoreDisplay': '10:31.60, 80 pts', 'rank': '3', 'heat': 1, 'points': '80', 'scoreDisplay': '10:31.60', 'location': '', 'time': '10:31.60', 'judge': '', 'workoutrank': '3'}, {'ordinal': 10, 'breakdown': '24 pts', 'lane': 3, 'scoreIdentifier': '0000', 'exists': True, 'workoutresult': '--', 'mobileScoreDisplay': 'CAP+8, 24 pts', 'rank': '12', 'heat': 1, 'points': '24', 'scoreDisplay': 'CAP+8', 'location': '', 'time': 'CAP+8', 'judge': '', 'workoutrank': '12'}, {'ordinal': 11, 'breakdown': '20 pts', 'lane': 3, 'scoreIdentifier': '0000', 'exists': True, 'workoutresult': '--', 'mobileScoreDisplay': '6:12.05, 20 pts', 'rank': '13', 'heat': 1, 'points': '20', 'scoreDisplay': '6:12.05', 'location': '', 'time': '6:12.05', 'judge': '', 'workoutrank': '13'}]",False,False
14,,,,46,470,473426,Wes Schneider,US,US,03,Wes,X,"6'2""",Schneider,0,c1ef2-P473426_1-184.jpg,West Coast,0,West Coast,West Coast,ACT,0,210 lbs,15,332,"[{'ordinal': 1, 'breakdown': '24 pts', 'lane': 1, 'scoreIdentifier': '0000', 'exists': True, 'workoutresult': '--', 'mobileScoreDisplay': '4:29.98, 24 pts', 'rank': '12', 'heat': 1, 'points': '24', 'scoreDisplay': '4:29.98', 'location': '', 'time': '4:29.98', 'judge': '', 'workoutrank': '12'}, {'ordinal': 2, 'breakdown': '100 pts', 'lane': 18, 'scoreIdentifier': '0000', 'exists': True, 'workoutresult': '--', 'mobileScoreDisplay': '2:28.19, 100 pts', 'rank': '1', 'heat': 1, 'points': '100', 'scoreDisplay': '2:28.19', 'location': '', 'time': '2:28.19', 'judge': '', 'workoutrank': '1'}, {'ordinal': 3, 'breakdown': '32 pts', 'lane': 18, 'scoreIdentifier': '0000', 'exists': True, 'workoutresult': '--', 'mobileScoreDisplay': '6:28.64, 32 pts', 'rank': '10', 'heat': 1, 'points': '32', 'scoreDisplay': '6:28.64', 'location': '', 'time': '6:28.64', 'judge': '', 'workoutrank': '10'}, {'ordinal': 4, 'breakdown': '90 pts', 'lane': 12, 'scoreIdentifier': '0000', 'exists': True, 'workoutresult': '--', 'mobileScoreDisplay': '320 lb, 90 pts', 'rank': '2', 'heat': 1, 'points': '90', 'scoreDisplay': '320 lb', 'location': '', 'time': '320', 'judge': '', 'workoutrank': '2'}, {'ordinal': 5, 'breakdown': '6 pts', 'lane': 12, 'scoreIdentifier': '0000', 'exists': True, 'workoutresult': '--', 'mobileScoreDisplay': 'CAP+24, 6 pts', 'rank': '17', 'heat': 1, 'points': '6', 'scoreDisplay': 'CAP+24', 'location': '', 'time': 'CAP+24', 'judge': '', 'workoutrank': '17'}, {'ordinal': 6, 'breakdown': '16 pts', 'lane': 12, 'scoreIdentifier': '0000', 'exists': True, 'workoutresult': '--', 'mobileScoreDisplay': '15:10.88, 16 pts', 'rank': '14', 'heat': 1, 'points': '16', 'scoreDisplay': '15:10.88', 'location': '', 'time': '15:10.88', 'judge': '', 'workoutrank': '14'}, {'ordinal': 7, 'breakdown': '8 pts', 'lane': 4, 'scoreIdentifier': '0000', 'exists': True, 'workoutresult': '--', 'mobileScoreDisplay': 'CAP+2, 8 pts', 'rank': '16', 'heat': 1, 'points': '8', 'scoreDisplay': 'CAP+2', 'location': '', 'time': 'CAP+2', 'judge': '', 'workoutrank': '16'}, {'ordinal': 8, 'breakdown': '20 pts', 'lane': 9, 'scoreIdentifier': '0000', 'exists': True, 'workoutresult': '--', 'mobileScoreDisplay': 'CAP+8, 20 pts', 'rank': '13', 'heat': 1, 'points': '20', 'scoreDisplay': 'CAP+8', 'location': '', 'time': 'CAP+8', 'judge': '', 'workoutrank': '13'}, {'ordinal': 9, 'breakdown': '8 pts', 'lane': 4, 'scoreIdentifier': '0000', 'exists': True, 'workoutresult': '--', 'mobileScoreDisplay': '15:55.95, 8 pts', 'rank': '16', 'heat': 1, 'points': '8', 'scoreDisplay': '15:55.95', 'location': '', 'time': '15:55.95', 'judge': '', 'workoutrank': '16'}, {'ordinal': 10, 'breakdown': '20 pts', 'lane': 17, 'scoreIdentifier': '0000', 'exists': True, 'workoutresult': '--', 'mobileScoreDisplay': 'CAP+10, 20 pts', 'rank': '13T', 'heat': 1, 'points': '20', 'scoreDisplay': 'CAP+10', 'location': '', 'time': 'CAP+10', 'judge': '', 'workoutrank': '13T'}, {'ordinal': 11, 'breakdown': '8 pts', 'lane': 17, 'scoreIdentifier': '0000', 'exists': True, 'workoutresult': '--', 'mobileScoreDisplay': 'CAP+18, 8 pts', 'rank': '16', 'heat': 1, 'points': '8', 'scoreDisplay': 'CAP+18', 'location': '', 'time': 'CAP+18', 'judge': '', 'workoutrank': '16'}]",False,False
15,,,,45,469,25974,Eddie Simpson,US,US,03,Eddie,X,"6'0""",Simpson,0,a0c24-P25974_3-184.jpg,Central East,0,Central East,Central East,ACT,0,197 lbs,16,248,"[{'ordinal': 1, 'breakdown': '8 pts', 'lane': 2, 'scoreIdentifier': '0000', 'exists': True, 'workoutresult': '--', 'mobileScoreDisplay': '5:19.76, 8 pts', 'rank': '16', 'heat': 1, 'points': '8', 'scoreDisplay': '5:19.76', 'location': '', 'time': '5:19.76', 'judge': '', 'workoutrank': '16'}, {'ordinal': 2, 'breakdown': '8 pts', 'lane': 1, 'scoreIdentifier': '0000', 'exists': True, 'workoutresult': '--', 'mobileScoreDisplay': 'CAP+24, 8 pts', 'rank': '16T', 'heat': 1, 'points': '8', 'scoreDisplay': 'CAP+24', 'location': '', 'time': 'CAP+24', 'judge': '', 'workoutrank': '16T'}, {'ordinal': 3, 'breakdown': '8 pts', 'lane': 1, 'scoreIdentifier': '0000', 'exists': True, 'workoutresult': '--', 'mobileScoreDisplay': '8:05.41, 8 pts', 'rank': '16', 'heat': 1, 'points': '8', 'scoreDisplay': '8:05.41', 'location': '', 'time': '8:05.41', 'judge': '', 'workoutrank': '16'}, {'ordinal': 4, 'breakdown': '80 pts', 'lane': 1, 'scoreIdentifier': '0000', 'exists': True, 'workoutresult': '--', 'mobileScoreDisplay': '315 lb, 80 pts', 'rank': '3T', 'heat': 1, 'points': '80', 'scoreDisplay': '315 lb', 'location': '', 'time': '315', 'judge': '', 'workoutrank': '3T'}, {'ordinal': 5, 'breakdown': '32 pts', 'lane': 1, 'scoreIdentifier': '0000', 'exists': True, 'workoutresult': '--', 'mobileScoreDisplay': '20:01.15, 32 pts', 'rank': '10', 'heat': 1, 'points': '32', 'scoreDisplay': '20:01.15', 'location': '', 'time': '20:01.15', 'judge': '', 'workoutrank': '10'}, {'ordinal': 6, 'breakdown': '28 pts', 'lane': 1, 'scoreIdentifier': '0000', 'exists': True, 'workoutresult': '--', 'mobileScoreDisplay': '13:55.55, 28 pts', 'rank': '11', 'heat': 1, 'points': '28', 'scoreDisplay': '13:55.55', 'location': '', 'time': '13:55.55', 'judge': '', 'workoutrank': '11'}, {'ordinal': 7, 'breakdown': '20 pts', 'lane': 15, 'scoreIdentifier': '0000', 'exists': True, 'workoutresult': '--', 'mobileScoreDisplay': '10:03.63, 20 pts', 'rank': '13', 'heat': 1, 'points': '20', 'scoreDisplay': '10:03.63', 'location': '', 'time': '10:03.63', 'judge': '', 'workoutrank': '13'}, {'ordinal': 8, 'breakdown': '8 pts', 'lane': 14, 'scoreIdentifier': '0000', 'exists': True, 'workoutresult': '--', 'mobileScoreDisplay': 'CAP+11, 8 pts', 'rank': '16', 'heat': 1, 'points': '8', 'scoreDisplay': 'CAP+11', 'location': '', 'time': 'CAP+11', 'judge': '', 'workoutrank': '16'}, {'ordinal': 9, 'breakdown': '12 pts', 'lane': 15, 'scoreIdentifier': '0000', 'exists': True, 'workoutresult': '--', 'mobileScoreDisplay': '14:43.90, 12 pts', 'rank': '15', 'heat': 1, 'points': '12', 'scoreDisplay': '14:43.90', 'location': '', 'time': '14:43.90', 'judge': '', 'workoutrank': '15'}, {'ordinal': 10, 'breakdown': '32 pts', 'lane': 18, 'scoreIdentifier': '0000', 'exists': True, 'workoutresult': '--', 'mobileScoreDisplay': 'CAP+1, 32 pts', 'rank': '10T', 'heat': 1, 'points': '32', 'scoreDisplay': 'CAP+1', 'location': '', 'time': 'CAP+1', 'judge': '', 'workoutrank': '10T'}, {'ordinal': 11, 'breakdown': '12 pts', 'lane': 18, 'scoreIdentifier': '0000', 'exists': True, 'workoutresult': '--', 'mobileScoreDisplay': '6:40.31, 12 pts', 'rank': '15', 'heat': 1, 'points': '12', 'scoreDisplay': '6:40.31', 'location': '', 'time': '6:40.31', 'judge': '', 'workoutrank': '15'}]",False,False
16,,,,47,455,268857,James Grundler,US,US,03,James,X,"5'11""",Grundler,0,7909f-P268857_1-184.jpg,West Coast,0,West Coast,West Coast,WD,0,198 lbs,17,144,"[{'ordinal': 1, 'breakdown': '4 pts', 'lane': 6, 'scoreIdentifier': '0000', 'exists': True, 'workoutresult': '--', 'mobileScoreDisplay': '7:12.69, 4 pts', 'rank': '18', 'heat': 2, 'points': '4', 'scoreDisplay': '7:12.69', 'location': '', 'time': '7:12.69', 'judge': '', 'workoutrank': '18'}, {'ordinal': 2, 'breakdown': '44 pts', 'lane': 11, 'scoreIdentifier': '0000', 'exists': True, 'workoutresult': '--', 'mobileScoreDisplay': 'CAP+3, 44 pts', 'rank': '8T', 'heat': 1, 'points': '44', 'scoreDisplay': 'CAP+3', 'location': '', 'time': 'CAP+3', 'judge': '', 'workoutrank': '8T'}, {'ordinal': 3, 'breakdown': '56 pts', 'lane': 11, 'scoreIdentifier': '0000', 'exists': True, 'workoutresult': '--', 'mobileScoreDisplay': '5:46.06, 56 pts', 'rank': '6', 'heat': 1, 'points': '56', 'scoreDisplay': '5:46.06', 'location': '', 'time': '5:46.06', 'judge': '', 'workoutrank': '6'}, {'ordinal': 4, 'breakdown': '28 pts', 'lane': 4, 'scoreIdentifier': '0000', 'exists': True, 'workoutresult': '--', 'mobileScoreDisplay': '275 lb, 28 pts', 'rank': '11T', 'heat': 1, 'points': '28', 'scoreDisplay': '275 lb', 'location': '', 'time': '275', 'judge': '', 'workoutrank': '11T'}, {'ordinal': 5, 'breakdown': '12 pts', 'lane': 4, 'scoreIdentifier': '0000', 'exists': True, 'workoutresult': '--', 'mobileScoreDisplay': '20:54.38, 12 pts', 'rank': '15', 'heat': 1, 'points': '12', 'scoreDisplay': '20:54.38', 'location': '', 'time': '20:54.38', 'judge': '', 'workoutrank': '15'}, {'ordinal': 6, 'breakdown': '', 'lane': 4, 'scoreIdentifier': '0000', 'exists': True, 'workoutresult': '--', 'rank': 'WD', 'heat': 1, 'points': 0, 'location': '', 'time': '', 'judge': '', 'workoutrank': 'WD'}, {'ordinal': 7, 'breakdown': '', 'lane': 0, 'scoreIdentifier': '0000', 'exists': True, 'workoutresult': '--', 'rank': 'WD', 'heat': 0, 'points': 0, 'location': '', 'time': '', 'judge': '', 'workoutrank': 'WD'}, {'ordinal': 8, 'breakdown': '', 'lane': 0, 'scoreIdentifier': '0000', 'exists': True, 'workoutresult': '--', 'rank': 'WD', 'heat': 0, 'points': 0, 'location': '', 'time': '', 'judge': '', 'workoutrank': 'WD'}, {'ordinal': 9, 'breakdown': '', 'lane': 0, 'scoreIdentifier': '0000', 'exists': True, 'workoutresult': '--', 'rank': 'WD', 'heat': 0, 'points': 0, 'location': '', 'time': '', 'judge': '', 'workoutrank': 'WD'}, {'ordinal': 10, 'breakdown': '', 'lane': 0, 'scoreIdentifier': '0000', 'exists': True, 'workoutresult': '--', 'rank': 'WD', 'heat': 0, 'points': 0, 'location': '', 'time': '', 'judge': '', 'workoutrank': 'WD'}, {'ordinal': 11, 'breakdown': '', 'lane': 0, 'scoreIdentifier': '0000', 'exists': True, 'workoutresult': '--', 'rank': 'WD', 'heat': 0, 'points': 0, 'location': '', 'time': '', 'judge': '', 'workoutrank': 'WD'}]",False,False
17,,,,48,463,23439,Steve Hartle,US,US,03,Steve,X,"5'8""",Hartle,0,52c7c-P23439_1-184.jpg,Mid Atlantic,0,Mid Atlantic,Mid Atlantic,WD,0,185 lbs,18,20,"[{'ordinal': 1, 'breakdown': '6 pts', 'lane': 7, 'scoreIdentifier': '0000', 'exists': True, 'workoutresult': '--', 'mobileScoreDisplay': '5:42.58, 6 pts', 'rank': '17', 'heat': 1, 'points': '6', 'scoreDisplay': '5:42.58', 'location': '', 'time': '5:42.58', 'judge': '', 'workoutrank': '17'}, {'ordinal': 2, 'breakdown': '8 pts', 'lane': 15, 'scoreIdentifier': '0000', 'exists': True, 'workoutresult': '--', 'mobileScoreDisplay': 'CAP+24, 8 pts', 'rank': '16T', 'heat': 1, 'points': '8', 'scoreDisplay': 'CAP+24', 'location': '', 'time': 'CAP+24', 'judge': '', 'workoutrank': '16T'}, {'ordinal': 3, 'breakdown': '6 pts', 'lane': 15, 'scoreIdentifier': '0000', 'exists': True, 'workoutresult': '--', 'mobileScoreDisplay': 'CAP+2, 6 pts', 'rank': '17', 'heat': 1, 'points': '6', 'scoreDisplay': 'CAP+2', 'location': '', 'time': 'CAP+2', 'judge': '', 'workoutrank': '17'}, {'ordinal': 4, 'breakdown': '', 'lane': 18, 'scoreIdentifier': '0000', 'exists': True, 'workoutresult': '--', 'rank': 'WD', 'heat': 1, 'points': 0, 'location': '', 'time': '', 'judge': '', 'workoutrank': 'WD'}, {'ordinal': 5, 'breakdown': '', 'lane': 18, 'scoreIdentifier': '0000', 'exists': True, 'workoutresult': '--', 'rank': 'WD', 'heat': 1, 'points': 0, 'location': '', 'time': '', 'judge': '', 'workoutrank': 'WD'}, {'ordinal': 6, 'breakdown': '', 'lane': 18, 'scoreIdentifier': '0000', 'exists': True, 'workoutresult': '--', 'rank': 'WD', 'heat': 1, 'points': 0, 'location': '', 'time': '', 'judge': '', 'workoutrank': 'WD'}, {'ordinal': 7, 'breakdown': '', 'lane': 0, 'scoreIdentifier': '0000', 'exists': True, 'workoutresult': '--', 'rank': 'WD', 'heat': 0, 'points': 0, 'location': '', 'time': '', 'judge': '', 'workoutrank': 'WD'}, {'ordinal': 8, 'breakdown': '', 'lane': 0, 'scoreIdentifier': '0000', 'exists': True, 'workoutresult': '--', 'rank': 'WD', 'heat': 0, 'points': 0, 'location': '', 'time': '', 'judge': '', 'workoutrank': 'WD'}, {'ordinal': 9, 'breakdown': '', 'lane': 0, 'scoreIdentifier': '0000', 'exists': True, 'workoutresult': '--', 'rank': 'WD', 'heat': 0, 'points': 0, 'location': '', 'time': '', 'judge': '', 'workoutrank': 'WD'}, {'ordinal': 10, 'breakdown': '', 'lane': 0, 'scoreIdentifier': '0000', 'exists': True, 'workoutresult': '--', 'rank': 'WD', 'heat': 0, 'points': 0, 'location': '', 'time': '', 'judge': '', 'workoutrank': 'WD'}, {'ordinal': 11, 'breakdown': '', 'lane': 0, 'scoreIdentifier': '0000', 'exists': True, 'workoutresult': '--', 'rank': 'WD', 'heat': 0, 'points': 0, 'location': '', 'time': '', 'judge': '', 'workoutrank': 'WD'}]",False,False
18,,,,49,453,8747,Bill Grundler,US,US,03,Bill,X,"6'0""",Grundler,0,71e65-P8747_2-184.jpg,West Coast,0,West Coast,West Coast,ACT,0,195 lbs,--,0,"[{'ordinal': 1, 'breakdown': '', 'lane': 0, 'scoreIdentifier': '0000', 'exists': True, 'workoutresult': '--', 'rank': '', 'heat': 0, 'points': 0, 'location': '', 'time': '', 'judge': '', 'workoutrank': ''}, {'ordinal': 2, 'breakdown': '', 'lane': 0, 'scoreIdentifier': '0000', 'exists': True, 'workoutresult': '--', 'rank': '', 'heat': 0, 'points': 0, 'location': '', 'time': '', 'judge': '', 'workoutrank': ''}, {'ordinal': 3, 'breakdown': '', 'lane': 0, 'scoreIdentifier': '0000', 'exists': True, 'workoutresult': '--', 'rank': '', 'heat': 0, 'points': 0, 'location': '', 'time': '', 'judge': '', 'workoutrank': ''}, {'ordinal': 4, 'breakdown': '', 'lane': 0, 'scoreIdentifier': '0000', 'exists': True, 'workoutresult': '--', 'rank': '', 'heat': 0, 'points': 0, 'location': '', 'time': '', 'judge': '', 'workoutrank': ''}, {'ordinal': 5, 'breakdown': '', 'lane': 0, 'scoreIdentifier': '0000', 'exists': True, 'workoutresult': '--', 'rank': '', 'heat': 0, 'points': 0, 'location': '', 'time': '', 'judge': '', 'workoutrank': ''}, {'ordinal': 6, 'breakdown': '', 'lane': 0, 'scoreIdentifier': '0000', 'exists': True, 'workoutresult': '--', 'rank': '', 'heat': 0, 'points': 0, 'location': '', 'time': '', 'judge': '', 'workoutrank': ''}, {'ordinal': 7, 'breakdown': '', 'lane': 0, 'scoreIdentifier': '0000', 'exists': True, 'workoutresult': '--', 'rank': '', 'heat': 0, 'points': 0, 'location': '', 'time': '', 'judge': '', 'workoutrank': ''}, {'ordinal': 8, 'breakdown': '', 'lane': 0, 'scoreIdentifier': '0000', 'exists': True, 'workoutresult': '--', 'rank': '', 'heat': 0, 'points': 0, 'location': '', 'time': '', 'judge': '', 'workoutrank': ''}, {'ordinal': 9, 'breakdown': '', 'lane': 0, 'scoreIdentifier': '0000', 'exists': True, 'workoutresult': '--', 'rank': '', 'heat': 0, 'points': 0, 'location': '', 'time': '', 'judge': '', 'workoutrank': ''}, {'ordinal': 10, 'breakdown': '', 'lane': 0, 'scoreIdentifier': '0000', 'exists': True, 'workoutresult': '--', 'rank': '', 'heat': 0, 'points': 0, 'location': '', 'time': '', 'judge': '', 'workoutrank': ''}, {'ordinal': 11, 'breakdown': '', 'lane': 0, 'scoreIdentifier': '0000', 'exists': True, 'workoutresult': '--', 'rank': '', 'heat': 0, 'points': 0, 'location': '', 'time': '', 'judge': '', 'workoutrank': ''}]",False,False
19,,,,48,468,245281,Felix Gonzalez,PR,PR,03,Felix,X,"5'7""",Gonzalez,0,2c571-P245281_3-184.jpg,Central America,0,Central America,Central America,ACT,0,163 lbs,--,0,"[{'ordinal': 1, 'breakdown': '', 'lane': 0, 'scoreIdentifier': '0000', 'exists': True, 'workoutresult': '--', 'rank': '', 'heat': 0, 'points': 0, 'location': '', 'time': '', 'judge': '', 'workoutrank': ''}, {'ordinal': 2, 'breakdown': '', 'lane': 0, 'scoreIdentifier': '0000', 'exists': True, 'workoutresult': '--', 'rank': '', 'heat': 0, 'points': 0, 'location': '', 'time': '', 'judge': '', 'workoutrank': ''}, {'ordinal': 3, 'breakdown': '', 'lane': 0, 'scoreIdentifier': '0000', 'exists': True, 'workoutresult': '--', 'rank': '', 'heat': 0, 'points': 0, 'location': '', 'time': '', 'judge': '', 'workoutrank': ''}, {'ordinal': 4, 'breakdown': '', 'lane': 0, 'scoreIdentifier': '0000', 'exists': True, 'workoutresult': '--', 'rank': '', 'heat': 0, 'points': 0, 'location': '', 'time': '', 'judge': '', 'workoutrank': ''}, {'ordinal': 5, 'breakdown': '', 'lane': 0, 'scoreIdentifier': '0000', 'exists': True, 'workoutresult': '--', 'rank': '', 'heat': 0, 'points': 0, 'location': '', 'time': '', 'judge': '', 'workoutrank': ''}, {'ordinal': 6, 'breakdown': '', 'lane': 0, 'scoreIdentifier': '0000', 'exists': True, 'workoutresult': '--', 'rank': '', 'heat': 0, 'points': 0, 'location': '', 'time': '', 'judge': '', 'workoutrank': ''}, {'ordinal': 7, 'breakdown': '', 'lane': 0, 'scoreIdentifier': '0000', 'exists': True, 'workoutresult': '--', 'rank': '', 'heat': 0, 'points': 0, 'location': '', 'time': '', 'judge': '', 'workoutrank': ''}, {'ordinal': 8, 'breakdown': '', 'lane': 0, 'scoreIdentifier': '0000', 'exists': True, 'workoutresult': '--', 'rank': '', 'heat': 0, 'points': 0, 'location': '', 'time': '', 'judge': '', 'workoutrank': ''}, {'ordinal': 9, 'breakdown': '', 'lane': 0, 'scoreIdentifier': '0000', 'exists': True, 'workoutresult': '--', 'rank': '', 'heat': 0, 'points': 0, 'location': '', 'time': '', 'judge': '', 'workoutrank': ''}, {'ordinal': 10, 'breakdown': '', 'lane': 0, 'scoreIdentifier': '0000', 'exists': True, 'workoutresult': '--', 'rank': '', 'heat': 0, 'points': 0, 'location': '', 'time': '', 'judge': '', 'workoutrank': ''}, {'ordinal': 11, 'breakdown': '', 'lane': 0, 'scoreIdentifier': '0000', 'exists': True, 'workoutresult': '--', 'rank': '', 'heat': 0, 'points': 0, 'location': '', 'time': '', 'judge': '', 'workoutrank': ''}]",False,False
