,breakdown,exists,heat,judge,lane,location,mobileScoreDisplay,ordinal,points,rank,scoreDisplay,scoreIdentifier,time,workoutrank,workoutresult,athlete
0,50 pts,True,1,,6,,"CAP+13, 50 pts",1,50,15,CAP+13,0000,CAP+13,15,--,Ron Mathews
1,100 pts,True,1,,6,,"CAP+1, 100 pts",2,100,1T,CAP+1,0000,CAP+1,1T,--,Ron Mathews
2,52 pts,True,1,,12,,"18:24.62, 52 pts",3,52,14,18:24.62,0000,18:24.62,14,--,Ron Mathews
3,88 pts,True,1,,12,,"2:02.77, 88 pts",4,88,3,2:02.77,0000,2:02.77,3,--,Ron Mathews
4,100 pts,True,1,,12,,"307 lb, 100 pts",5,100,1,307 lb,0000,307,1,--,Ron Mathews
5,72 pts,True,1,,10,,"6:41.50, 72 pts",6,72,7,6:41.50,0000,6:41.50,7,--,Ron Mathews
6,100 pts,True,1,,5,,"5:20.48, 100 pts",7,100,1,5:20.48,0000,5:20.48,1,--,Ron Mathews
0,68 pts,True,1,,13,,"18:44.58, 68 pts",1,68,8,18:44.58,0000,18:44.58,8,--,Brent Maier
1,80 pts,True,1,,13,,"CAP+6, 80 pts",2,80,5,CAP+6,0000,CAP+6,5,--,Brent Maier
2,88 pts,True,1,,8,,"16:56.58, 88 pts",3,88,3,16:56.58,0000,16:56.58,3,--,Brent Maier
3,46 pts,True,1,,8,,"2:36.10, 46 pts",4,46,17,2:36.10,0000,2:36.10,17,--,Brent Maier
4,88 pts,True,1,,8,,"292 lb, 88 pts",5,88,3,292 lb,0000,292,3,--,Brent Maier
5,84 pts,True,1,,11,,"6:10.57, 84 pts",6,84,4,6:10.57,0000,6:10.57,4,--,Brent Maier
6,88 pts,True,1,,6,,"7:53.42, 88 pts",7,88,3,7:53.42,0000,7:53.42,3,--,Brent Maier
0,64 pts,True,1,,16,,"18:44.74, 64 pts",1,64,9,18:44.74,0000,18:44.74,9,--,Scott Jones
1,100 pts,True,1,,16,,"CAP+1, 100 pts",2,100,1T,CAP+1,0000,CAP+1,1T,--,Scott Jones
2,54 pts,True,1,,9,,"17:59.73, 54 pts",3,54,13,17:59.73,0000,17:59.73,13,--,Scott Jones
3,58 pts,True,1,,9,,"2:18.11, 58 pts",4,58,11,2:18.11,0000,2:18.11,11,--,Scott Jones
4,76 pts,True,1,,9,,"270 lb, 76 pts",5,76,6,270 lb,0000,270,6,--,Scott Jones
5,100 pts,True,1,,8,,"5:58.06, 100 pts",6,100,1,5:58.06,0000,5:58.06,1,--,Scott Jones
6,80 pts,True,1,,4,,"CAP+1, 80 pts",7,80,5,CAP+1,0000,CAP+1,5,--,Scott Jones
0,100 pts,True,1,,9,,"15:40.92, 100 pts",1,100,1,15:40.92,0000,15:40.92,1,--,Robert Davis
1,68 pts,True,1,,9,,"CAP+8, 68 pts",2,68,8,CAP+8,0000,CAP+8,8,--,Robert Davis
2,76 pts,True,1,,11,,"17:12.32, 76 pts",3,76,6,17:12.32,0000,17:12.32,6,--,Robert Davis
3,44 pts,True,1,,11,,"2:37.07, 44 pts",4,44,18,2:37.07,0000,2:37.07,18,--,Robert Davis
4,58 pts,True,1,,11,,"257 lb, 58 pts",5,58,11,257 lb,0000,257,11,--,Robert Davis
5,76 pts,True,1,,7,,"6:39.51, 76 pts",6,76,6,6:39.51,0000,6:39.51,6,--,Robert Davis
6,84 pts,True,1,,2,,"8:32.53, 84 pts",7,84,4,8:32.53,0000,8:32.53,4,--,Robert Davis
0,60 pts,True,1,,5,,"CAP+2, 60 pts",1,60,10,CAP+2,0000,CAP+2,10,--,Scott Tasaka
1,50 pts,True,1,,5,,"CAP+17, 50 pts",2,50,15T,CAP+17,0000,CAP+17,15T,--,Scott Tasaka
2,100 pts,True,1,,18,,"16:28.86, 100 pts",3,100,1,16:28.86,0000,16:28.86,1,--,Scott Tasaka
3,94 pts,True,1,,18,,"2:00.70, 94 pts",4,94,2,2:00.70,0000,2:00.70,2,--,Scott Tasaka
4,48 pts,True,1,,18,,"245 lb, 48 pts",5,48,16,245 lb,0000,245,16,--,Scott Tasaka
5,80 pts,True,1,,12,,"6:25.21, 80 pts",6,80,5,6:25.21,0000,6:25.21,5,--,Scott Tasaka
6,68 pts,True,1,,3,,"CAP+9, 68 pts",7,68,8,CAP+9,0000,CAP+9,8,--,Scott Tasaka
0,44 pts,True,1,,2,,"CAP+48, 44 pts",1,44,18,CAP+48,0000,CAP+48,18,--,Zack Bayag
1,60 pts,True,1,,2,,"CAP+12, 60 pts",2,60,10T,CAP+12,0000,CAP+12,10T,--,Zack Bayag
2,94 pts,True,1,,19,,"16:51.97, 94 pts",3,94,2,16:51.97,0000,16:51.97,2,--,Zack Bayag
3,100 pts,True,1,,19,,"1:57.55, 100 pts",4,100,1,1:57.55,0000,1:57.55,1,--,Zack Bayag
4,44 pts,True,1,,19,,"235 lb, 44 pts",5,44,18,235 lb,0000,235,18,--,Zack Bayag
5,94 pts,True,1,,14,,"6:00.07, 94 pts",6,94,2,6:00.07,0000,6:00.07,2,--,Zack Bayag
6,60 pts,True,1,,7,,"CAP+42, 60 pts",7,60,10,CAP+42,0000,CAP+42,10,--,Zack Bayag
0,46 pts,True,1,,8,,"CAP+32, 46 pts",1,46,17,CAP+32,0000,CAP+32,17,--,James Grundler
1,76 pts,True,1,,8,,"CAP+7, 76 pts",2,76,6T,CAP+7,0000,CAP+7,6T,--,James Grundler
2,44 pts,True,1,,16,,"19:37.55, 44 pts",3,44,18,19:37.55,0000,19:37.55,18,--,James Grundler
3,48 pts,True,1,,16,,"2:33.02, 48 pts",4,48,16,2:33.02,0000,2:33.02,16,--,James Grundler
4,94 pts,True,1,,16,,"305 lb, 94 pts",5,94,2,305 lb,0000,305,2,--,James Grundler
5,88 pts,True,1,,16,,"6:05.99, 88 pts",6,88,3,6:05.99,0000,6:05.99,3,--,James Grundler
6,94 pts,True,1,,1,,"6:49.18, 94 pts",7,94,2,6:49.18,0000,6:49.18,2,--,James Grundler
0,94 pts,True,1,,1,,"16:19.67, 94 pts",1,94,2,16:19.67,0000,16:19.67,2,--,Craig Eisman
1,50 pts,True,1,,1,,"CAP+17, 50 pts",2,50,15T,CAP+17,0000,CAP+17,15T,--,Craig Eisman
2,84 pts,True,1,,13,,"17:11.75, 84 pts",3,84,4,17:11.75,0000,17:11.75,4,--,Craig Eisman
3,84 pts,True,1,,13,,"2:06.75, 84 pts",4,84,4,2:06.75,0000,2:06.75,4,--,Craig Eisman
4,56 pts,True,1,,13,,"250 lb, 56 pts",5,56,12T,250 lb,0000,250,12T,--,Craig Eisman
5,56 pts,True,1,,9,,"7:33.02, 56 pts",6,56,12,7:33.02,0000,7:33.02,12,--,Craig Eisman
6,64 pts,True,1,,8,,"CAP+10, 64 pts",7,64,9,CAP+10,0000,CAP+10,9,--,Craig Eisman
0,80 pts,True,1,,14,,"17:38.14, 80 pts",1,80,5,17:38.14,0000,17:38.14,5,--,Gregg Geerdes
1,44 pts,True,1,,14,,"CAP+18, 44 pts",2,44,18,CAP+18,0000,CAP+18,18,--,Gregg Geerdes
2,80 pts,True,1,,5,,"17:12.14, 80 pts",3,80,5,17:12.14,0000,17:12.14,5,--,Gregg Geerdes
3,80 pts,True,1,,5,,"2:10.43, 80 pts",4,80,5,2:10.43,0000,2:10.43,5,--,Gregg Geerdes
4,68 pts,True,1,,5,,"265 lb, 68 pts",5,68,8,265 lb,0000,265,8,--,Gregg Geerdes
5,50 pts,True,1,,13,,"8:47.93, 50 pts",6,50,15,8:47.93,0000,8:47.93,15,--,Gregg Geerdes
6,72 pts,True,1,,9,,"CAP+3, 72 pts",7,72,7,CAP+3,0000,CAP+3,7,--,Gregg Geerdes
0,84 pts,True,1,,12,,"17:02.10, 84 pts",1,84,4,17:02.10,0000,17:02.10,4,--,Cliff Musgrave
1,60 pts,True,1,,12,,"CAP+12, 60 pts",2,60,10T,CAP+12,0000,CAP+12,10T,--,Cliff Musgrave
2,68 pts,True,1,,7,,"17:29.03, 68 pts",3,68,8,17:29.03,0000,17:29.03,8,--,Cliff Musgrave
3,72 pts,True,1,,7,,"2:13.86, 72 pts",4,72,7,2:13.86,0000,2:13.86,7,--,Cliff Musgrave
4,52 pts,True,1,,7,,"247 lb, 52 pts",5,52,14T,247 lb,0000,247,14T,--,Cliff Musgrave
5,58 pts,True,1,,6,,"7:20.42, 58 pts",6,58,11,7:20.42,0000,7:20.42,11,--,Cliff Musgrave
6,76 pts,True,1,,10,,"CAP+2, 76 pts",7,76,6,CAP+2,0000,CAP+2,6,--,Cliff Musgrave
0,54 pts,True,1,,10,,"CAP+8, 54 pts",1,54,13,CAP+8,0000,CAP+8,13,--,Steve Johnson
1,76 pts,True,1,,10,,"CAP+7, 76 pts",2,76,6T,CAP+7,0000,CAP+7,6T,--,Steve Johnson
2,46 pts,True,1,,15,,"19:11.30, 46 pts",3,46,17,19:11.30,0000,19:11.30,17,--,Steve Johnson
3,68 pts,True,1,,15,,"2:14.86, 68 pts",4,68,8,2:14.86,0000,2:14.86,8,--,Steve Johnson
4,84 pts,True,1,,15,,"290 lb, 84 pts",5,84,4,290 lb,0000,290,4,--,Steve Johnson
5,54 pts,True,1,,15,,"7:56.61, 54 pts",6,54,13,7:56.61,0000,7:56.61,13,--,Steve Johnson
6,,True,0,,0,,,7,0,---,,0000,,,--,Steve Johnson
0,58 pts,True,1,,17,,"CAP+4, 58 pts",1,58,11,CAP+4,0000,CAP+4,11,--,Rob LaBar
1,50 pts,True,1,,17,,"CAP+17, 50 pts",2,50,15T,CAP+17,0000,CAP+17,15T,--,Rob LaBar
2,64 pts,True,1,,2,,"17:40.64, 64 pts",3,64,9,17:40.64,0000,17:40.64,9,--,Rob LaBar
3,64 pts,True,1,,2,,"2:15.30, 64 pts",4,64,9,2:15.30,0000,2:15.30,9,--,Rob LaBar
4,72 pts,True,1,,2,,"267 lb, 72 pts",5,72,7,267 lb,0000,267,7,--,Rob LaBar
5,68 pts,True,1,,4,,"6:43.95, 68 pts",6,68,8,6:43.95,0000,6:43.95,8,--,Rob LaBar
6,,True,0,,0,,,7,0,---,,0000,,,--,Rob LaBar
0,48 pts,True,1,,4,,"CAP+19, 48 pts",1,48,16,CAP+19,0000,CAP+19,16,--,Greg Merkac
1,88 pts,True,1,,4,,"CAP+2, 88 pts",2,88,3,CAP+2,0000,CAP+2,3,--,Greg Merkac
2,50 pts,True,1,,14,,"18:34.98, 50 pts",3,50,15,18:34.98,0000,18:34.98,15,--,Greg Merkac
3,50 pts,True,1,,14,,"2:27.99, 50 pts",4,50,15,2:27.99,0000,2:27.99,15,--,Greg Merkac
4,80 pts,True,1,,14,,"277 lb, 80 pts",5,80,5,277 lb,0000,277,5,--,Greg Merkac
5,52 pts,True,1,,5,,"8:21.81, 52 pts",6,52,14,8:21.81,0000,8:21.81,14,--,Greg Merkac
6,,True,0,,0,,,7,0,---,,0000,,,--,Greg Merkac
0,76 pts,True,1,,18,,"17:54.62, 76 pts",1,76,6,17:54.62,0000,17:54.62,6,--,Ben  Kelly
1,42 pts,True,1,,18,,"CAP+22, 42 pts",2,42,19,CAP+22,0000,CAP+22,19,--,Ben  Kelly
2,56 pts,True,1,,4,,"17:58.04, 56 pts",3,56,12,17:58.04,0000,17:58.04,12,--,Ben  Kelly
3,60 pts,True,1,,4,,"2:17.16, 60 pts",4,60,10,2:17.16,0000,2:17.16,10,--,Ben  Kelly
4,64 pts,True,1,,4,,"262 lb, 64 pts",5,64,9,262 lb,0000,262,9,--,Ben  Kelly
5,60 pts,True,1,,17,,"7:19.53, 60 pts",6,60,10,7:19.53,0000,7:19.53,10,--,Ben  Kelly
6,,True,0,,0,,,7,0,---,,0000,,,--,Ben  Kelly
0,56 pts,True,1,,15,,"CAP+7, 56 pts",1,56,12,CAP+7,0000,CAP+7,12,--,Ray Carr
1,60 pts,True,1,,15,,"CAP+12, 60 pts",2,60,10T,CAP+12,0000,CAP+12,10T,--,Ray Carr
2,60 pts,True,1,,17,,"17:54.97, 60 pts",3,60,10,17:54.97,0000,17:54.97,10,--,Ray Carr
3,56 pts,True,1,,17,,"2:20.53, 56 pts",4,56,12,2:20.53,0000,2:20.53,12,--,Ray Carr
4,52 pts,True,1,,17,,"247 lb, 52 pts",5,52,14T,247 lb,0000,247,14T,--,Ray Carr
5,64 pts,True,1,,18,,"7:01.27, 64 pts",6,64,9,7:01.27,0000,7:01.27,9,--,Ray Carr
6,,True,0,,0,,,7,0,---,,0000,,,--,Ray Carr
0,52 pts,True,1,,7,,"CAP+10, 52 pts",1,52,14,CAP+10,0000,CAP+10,14,--,Scott Jenkins
1,60 pts,True,1,,7,,"CAP+12, 60 pts",2,60,10T,CAP+12,0000,CAP+12,10T,--,Scott Jenkins
2,58 pts,True,1,,3,,"17:55.09, 58 pts",3,58,11,17:55.09,0000,17:55.09,11,--,Scott Jenkins
3,76 pts,True,1,,3,,"2:11.73, 76 pts",4,76,6,2:11.73,0000,2:11.73,6,--,Scott Jenkins
4,46 pts,True,1,,3,,"237 lb, 46 pts",5,46,17,237 lb,0000,237,17,--,Scott Jenkins
5,44 pts,True,1,,3,,"CAP+18, 44 pts",6,44,18,CAP+18,0000,CAP+18,18,--,Scott Jenkins
6,,True,0,,0,,,7,0,---,,0000,,,--,Scott Jenkins
0,72 pts,True,1,,19,,"18:27.59, 72 pts",1,72,7,18:27.59,0000,18:27.59,7,--,Brian  Beck
1,64 pts,True,1,,19,,"CAP+11, 64 pts",2,64,9,CAP+11,0000,CAP+11,9,--,Brian  Beck
2,42 pts,True,1,,6,,"CAP+8, 42 pts",3,42,19,CAP+8,0000,CAP+8,19,--,Brian  Beck
3,42 pts,True,1,,6,,"2:45.75, 42 pts",4,42,19,2:45.75,0000,2:45.75,19,--,Brian  Beck
4,56 pts,True,1,,6,,"250 lb, 56 pts",5,56,12T,250 lb,0000,250,12T,--,Brian  Beck
5,46 pts,True,1,,2,,"9:17.76, 46 pts",6,46,17,9:17.76,0000,9:17.76,17,--,Brian  Beck
6,,True,0,,0,,,7,0,---,,0000,,,--,Brian  Beck
0,42 pts,True,1,,3,,"CAP+72, 42 pts",1,42,19,CAP+72,0000,CAP+72,19,--,Matt Cia
1,52 pts,True,1,,3,,"CAP+13, 52 pts",2,52,14,CAP+13,0000,CAP+13,14,--,Matt Cia
2,48 pts,True,1,,1,,"18:51.26, 48 pts",3,48,16,18:51.26,0000,18:51.26,16,--,Matt Cia
3,54 pts,True,1,,1,,"2:21.25, 54 pts",4,54,13,2:21.25,0000,2:21.25,13,--,Matt Cia
4,60 pts,True,1,,1,,"261 lb, 60 pts",5,60,10,261 lb,0000,261,10,--,Matt Cia
5,48 pts,True,1,,19,,"9:07.80, 48 pts",6,48,16,9:07.80,0000,9:07.80,16,--,Matt Cia
6,,True,0,,0,,,7,0,---,,0000,,,--,Matt Cia
0,88 pts,True,1,,11,,"16:54.08, 88 pts",1,88,3,16:54.08,0000,16:54.08,3,--,Bill Grundler
1,84 pts,True,1,,11,,"CAP+3, 84 pts",2,84,4,CAP+3,0000,CAP+3,4,--,Bill Grundler
2,72 pts,True,1,,10,,"17:24.93, 72 pts",3,72,7,17:24.93,0000,17:24.93,7,--,Bill Grundler
3,52 pts,True,1,,10,,"2:24.66, 52 pts",4,52,14,2:24.66,0000,2:24.66,14,--,Bill Grundler
4,42 pts,True,1,,10,,"0 lb, 42 pts",5,42,19,0 lb,0000,,19,--,Bill Grundler
5,,True,0,,0,,,6,0,WD,,0000,,WD,--,Bill Grundler
6,,True,0,,0,,,7,0,WD,,0000,,WD,--,Bill Grundler
0,40 pts,True,1,,20,,"CAP+286, 40 pts",1,40,20,CAP+286,0000,CAP+286,20,--,Albert Police
1,,True,1,,0,,,2,0,WD,,0000,,WD,--,Albert Police
2,,True,0,,0,,,3,0,WD,,0000,,WD,--,Albert Police
3,,True,0,,0,,,4,0,WD,,0000,,WD,--,Albert Police
4,,True,0,,0,,,5,0,WD,,0000,,WD,--,Albert Police
5,,True,0,,0,,,6,0,WD,,0000,,WD,--,Albert Police
6,,True,0,,0,,,7,0,WD,,0000,,WD,--,Albert Police
